pwm/simulation/qsim/pwm.msim.vcd
$comment
	File created using the following command:
		vcd file pwm.msim.vcd -direction
$end
$date
	Tue Oct 10 20:47:29 2023
$end
$version
	ModelSim Version 10.5b
$end
$timescale
	1ps
$end

$scope module pwm_vhd_vec_tst $end
$var wire 1 ! clk $end
$var wire 1 " rst $end
$var wire 1 # x [2] $end
$var wire 1 $ x [1] $end
$var wire 1 % x [0] $end
$var wire 1 & y $end

$scope module i1 $end
$var wire 1 ' gnd $end
$var wire 1 ( vcc $end
$var wire 1 ) unknown $end
$var wire 1 * devoe $end
$var wire 1 + devclrn $end
$var wire 1 , devpor $end
$var wire 1 - ww_devoe $end
$var wire 1 . ww_devclrn $end
$var wire 1 / ww_devpor $end
$var wire 1 0 ww_clk $end
$var wire 1 1 ww_rst $end
$var wire 1 2 ww_x [2] $end
$var wire 1 3 ww_x [1] $end
$var wire 1 4 ww_x [0] $end
$var wire 1 5 ww_y $end
$var wire 1 6 \y~output_o\ $end
$var wire 1 7 \clk~input_o\ $end
$var wire 1 8 \counter~2_combout\ $end
$var wire 1 9 \rst~input_o\ $end
$var wire 1 : \counter~1_combout\ $end
$var wire 1 ; \counter~0_combout\ $end
$var wire 1 < \x[2]~input_o\ $end
$var wire 1 = \x[1]~input_o\ $end
$var wire 1 > \x[0]~input_o\ $end
$var wire 1 ? \LessThan0~0_combout\ $end
$var wire 1 @ counter [2] $end
$var wire 1 A counter [1] $end
$var wire 1 B counter [0] $end
$var wire 1 C \ALT_INV_rst~input_o\ $end
$var wire 1 D \ALT_INV_x[0]~input_o\ $end
$var wire 1 E \ALT_INV_x[1]~input_o\ $end
$var wire 1 F \ALT_INV_x[2]~input_o\ $end
$var wire 1 G ALT_INV_counter [2] $end
$var wire 1 H ALT_INV_counter [1] $end
$var wire 1 I ALT_INV_counter [0] $end
$upscope $end
$upscope $end
$enddefinitions $end
#0
$dumpvars
0!
0"
1&
0'
1(
x)
1*
1+
1,
1-
1.
1/
00
01
15
16
07
18
09
0:
0;
0<
1=
1>
1?
1C
0D
0E
1F
0#
1$
1%
02
13
14
0@
0A
0B
1G
1H
1I
$end
#5000
1!
10
17
1B
0I
08
1:
#10000
0!
00
07
#15000
1!
10
17
0B
1A
0H
1I
18
#20000
0!
00
07
#25000
1!
10
17
1B
0I
08
0:
1;
0?
06
05
0&
#30000
0!
00
07
#35000
1!
10
17
0B
0A
1@
0G
1H
1I
18
#40000
0!
00
07
#45000
1!
10
17
1B
0I
08
1:
#50000
0!
00
07
#55000
1!
10
17
0B
1A
0H
1I
0:
0;
#60000
0!
00
07
#65000
1!
10
17
0A
0@
1G
1H
18
1?
16
15
1&
#70000
0!
00
07
#75000
1!
10
17
1B
0I
08
1:
#80000
0!
00
07
#85000
1!
10
17
0B
1A
0H
1I
18
#90000
0!
00
07
#95000
1!
10
17
1B
0I
08
0:
1;
0?
06
05
0&
#100000
0!
00
07
#105000
1!
10
17
0B
0A
1@
0G
1H
1I
18
#110000
0!
00
07
#115000
1!
10
17
1B
0I
08
1:
#120000
0!
00
07
#125000
1!
10
17
0B
1A
0H
1I
0:
0;
#130000
0!
00
07
#135000
1!
10
17
0A
0@
1G
1H
18
1?
16
15
1&
#140000
0!
00
07
#145000
1!
10
17
1B
0I
08
1:
#150000
0!
00
07
#155000
1!
10
17
0B
1A
0H
1I
18
#160000
0!
00
07
#165000
1!
10
17
1B
0I
08
0:
1;
0?
06
05
0&
#170000
0!
00
07
#175000
1!
10
17
0B
0A
1@
0G
1H
1I
18
#180000
0!
00
07
#185000
1!
10
17
1B
0I
08
1:
#190000
0!
00
07
#195000
1!
10
17
0B
1A
0H
1I
0:
0;
#200000
0!
00
07
#205000
1!
10
17
0A
0@
1G
1H
18
1?
16
15
1&
#210000
0!
00
07
#215000
1!
10
17
1B
0I
08
1:
#220000
0!
00
07
#225000
1!
10
17
0B
1A
0H
1I
18
#230000
0!
00
07
#235000
1!
10
17
1B
0I
08
0:
1;
0?
06
05
0&
#240000
0!
00
07
#245000
1!
10
17
0B
0A
1@
0G
1H
1I
18
#250000
0!
00
07
#255000
1!
10
17
1B
0I
08
1:
#260000
0!
00
07
#265000
1!
10
17
0B
1A
0H
1I
0:
0;
#270000
0!
00
07
#275000
1!
10
17
0A
0@
1G
1H
18
1?
16
15
1&
#280000
0!
00
07
#285000
1!
10
17
1B
0I
08
1:
#290000
0!
00
07
#295000
1!
10
17
0B
1A
0H
1I
18
#300000
0!
00
07
#305000
1!
10
17
1B
0I
08
0:
1;
0?
06
05
0&
#310000
0!
00
07
#315000
1!
10
17
0B
0A
1@
0G
1H
1I
18
#320000
0!
00
07
#325000
1!
10
17
1B
0I
08
1:
#330000
0!
00
07
#335000
1!
10
17
0B
1A
0H
1I
0:
0;
#340000
0!
00
07
#345000
1!
10
17
0A
0@
1G
1H
18
1?
16
15
1&
#350000
0!
00
07
#355000
1!
10
17
1B
0I
08
1:
#360000
0!
00
07
#365000
1!
10
17
0B
1A
0H
1I
18
#370000
0!
00
07
#375000
1!
10
17
1B
0I
08
0:
1;
0?
06
05
0&
#380000
0!
00
07
#385000
1!
10
17
0B
0A
1@
0G
1H
1I
18
#390000
0!
00
07
#395000
1!
10
17
1B
0I
08
1:
#400000
0!
00
07
#405000
1!
10
17
0B
1A
0H
1I
0:
0;
#410000
0!
00
07
#415000
1!
10
17
0A
0@
1G
1H
18
1?
16
15
1&
#420000
0!
00
07
#425000
1!
10
17
1B
0I
08
1:
#430000
0!
00
07
#435000
1!
10
17
0B
1A
0H
1I
18
#440000
0!
00
07
#445000
1!
10
17
1B
0I
08
0:
1;
0?
06
05
0&
#450000
0!
00
07
#455000
1!
10
17
0B
0A
1@
0G
1H
1I
18
#460000
0!
00
07
#465000
1!
10
17
1B
0I
08
1:
#470000
0!
00
07
#475000
1!
10
17
0B
1A
0H
1I
0:
0;
#480000
0!
00
07
#485000
1!
10
17
0A
0@
1G
1H
18
1?
16
15
1&
#490000
0!
00
07
#495000
1!
10
17
1B
0I
08
1:
#500000
0!
00
07
#505000
1!
10
17
0B
1A
0H
1I
18
#510000
0!
00
07
#515000
1!
10
17
1B
0I
08
0:
1;
0?
06
05
0&
#520000
0!
00
07
#525000
1!
10
17
0B
0A
1@
0G
1H
1I
18
#530000
0!
00
07
#535000
1!
10
17
1B
0I
08
1:
#540000
0!
00
07
#545000
1!
10
17
0B
1A
0H
1I
0:
0;
#550000
0!
00
07
#555000
1!
10
17
0A
0@
1G
1H
18
1?
16
15
1&
#560000
0!
00
07
#565000
1!
10
17
1B
0I
08
1:
#570000
0!
00
07
#575000
1!
10
17
0B
1A
0H
1I
18
#580000
0!
00
07
#585000
1!
10
17
1B
0I
08
0:
1;
0?
06
05
0&
#590000
0!
00
07
#595000
1!
10
17
0B
0A
1@
0G
1H
1I
18
#600000
0!
00
07
#605000
1!
10
17
1B
0I
08
1:
#610000
0!
00
07
#615000
1!
10
17
0B
1A
0H
1I
0:
0;
#620000
0!
00
07
#625000
1!
10
17
0A
0@
1G
1H
18
1?
16
15
1&
#630000
0!
00
07
#635000
1!
10
17
1B
0I
08
1:
#640000
0!
00
07
#645000
1!
10
17
0B
1A
0H
1I
18
#650000
0!
00
07
#655000
1!
10
17
1B
0I
08
0:
1;
0?
06
05
0&
#660000
0!
00
07
#665000
1!
10
17
0B
0A
1@
0G
1H
1I
18
#670000
0!
00
07
#675000
1!
10
17
1B
0I
08
1:
#680000
0!
00
07
#685000
1!
10
17
0B
1A
0H
1I
0:
0;
#690000
0!
00
07
#695000
1!
10
17
0A
0@
1G
1H
18
1?
16
15
1&
#700000
0!
00
07
#705000
1!
10
17
1B
0I
08
1:
#710000
0!
00
07
#715000
1!
10
17
0B
1A
0H
1I
18
#720000
0!
00
07
#725000
1!
10
17
1B
0I
08
0:
1;
0?
06
05
0&
#730000
0!
00
07
#735000
1!
10
17
0B
0A
1@
0G
1H
1I
18
#740000
0!
00
07
#745000
1!
10
17
1B
0I
08
1:
#750000
0!
00
07
#755000
1!
10
17
0B
1A
0H
1I
0:
0;
#760000
0!
00
07
#765000
1!
10
17
0A
0@
1G
1H
18
1?
16
15
1&
#770000
0!
00
07
#775000
1!
10
17
1B
0I
08
1:
#780000
0!
00
07
#785000
1!
10
17
0B
1A
0H
1I
18
#790000
0!
00
07
#795000
1!
10
17
1B
0I
08
0:
1;
0?
06
05
0&
#800000
0!
00
07
#805000
1!
10
17
0B
0A
1@
0G
1H
1I
18
#810000
0!
00
07
#815000
1!
10
17
1B
0I
08
1:
#820000
0!
00
07
#825000
1!
10
17
0B
1A
0H
1I
0:
0;
#830000
0!
00
07
#835000
1!
10
17
0A
0@
1G
1H
18
1?
16
15
1&
#840000
0!
00
07
#845000
1!
10
17
1B
0I
08
1:
#850000
0!
00
07
#855000
1!
10
17
0B
1A
0H
1I
18
#860000
0!
00
07
#865000
1!
10
17
1B
0I
08
0:
1;
0?
06
05
0&
#870000
0!
00
07
#875000
1!
10
17
0B
0A
1@
0G
1H
1I
18
#880000
0!
00
07
#885000
1!
10
17
1B
0I
08
1:
#890000
0!
00
07
#895000
1!
10
17
0B
1A
0H
1I
0:
0;
#900000
0!
00
07
#905000
1!
10
17
0A
0@
1G
1H
18
1?
16
15
1&
#910000
0!
00
07
#915000
1!
10
17
1B
0I
08
1:
#920000
0!
00
07
#925000
1!
10
17
0B
1A
0H
1I
18
#930000
0!
00
07
#935000
1!
10
17
1B
0I
08
0:
1;
0?
06
05
0&
#940000
0!
00
07
#945000
1!
10
17
0B
0A
1@
0G
1H
1I
18
#950000
0!
00
07
#955000
1!
10
17
1B
0I
08
1:
#960000
0!
00
07
#965000
1!
10
17
0B
1A
0H
1I
0:
0;
#970000
0!
00
07
#975000
1!
10
17
0A
0@
1G
1H
18
1?
16
15
1&
#980000
0!
00
07
#985000
1!
10
17
1B
0I
08
1:
#990000
0!
00
07
#995000
1!
10
17
0B
1A
0H
1I
18
