pwm/simulation/qsim/pwm.msim.vcd
$comment
	File created using the following command:
		vcd file pwm.msim.vcd -direction
$end
$date
	Mon Oct 23 20:46:53 2023
$end
$version
	ModelSim Version 10.5b
$end
$timescale
	1ps
$end

$scope module pwm_vhd_vec_tst $end
$var wire 1 ! clk $end
$var wire 1 " p $end
$var wire 1 # rst $end
$var wire 1 $ x [2] $end
$var wire 1 % x [1] $end
$var wire 1 & x [0] $end

$scope module i1 $end
$var wire 1 ' gnd $end
$var wire 1 ( vcc $end
$var wire 1 ) unknown $end
$var wire 1 * devoe $end
$var wire 1 + devclrn $end
$var wire 1 , devpor $end
$var wire 1 - ww_devoe $end
$var wire 1 . ww_devclrn $end
$var wire 1 / ww_devpor $end
$var wire 1 0 ww_clk $end
$var wire 1 1 ww_rst $end
$var wire 1 2 ww_x [2] $end
$var wire 1 3 ww_x [1] $end
$var wire 1 4 ww_x [0] $end
$var wire 1 5 ww_p $end
$var wire 1 6 \p~output_o\ $end
$var wire 1 7 \clk~input_o\ $end
$var wire 1 8 \x[2]~input_o\ $end
$var wire 1 9 \x[1]~input_o\ $end
$var wire 1 : \x[0]~input_o\ $end
$var wire 1 ; \rst~input_o\ $end
$var wire 1 < \state.s6~q\ $end
$var wire 1 = \state.s0~0_combout\ $end
$var wire 1 > \state.s0~q\ $end
$var wire 1 ? \state.s1~0_combout\ $end
$var wire 1 @ \state.s1~q\ $end
$var wire 1 A \state.s2~q\ $end
$var wire 1 B \state.s3~q\ $end
$var wire 1 C \state.s4~q\ $end
$var wire 1 D \state.s5~q\ $end
$var wire 1 E \Selector0~0_combout\ $end
$var wire 1 F \Selector0~1_combout\ $end
$var wire 1 G \Selector0~2_combout\ $end
$var wire 1 H \Selector0~3_combout\ $end
$var wire 1 I \p~reg0_q\ $end
$var wire 1 J \ALT_INV_state.s5~q\ $end
$var wire 1 K \ALT_INV_state.s6~q\ $end
$var wire 1 L \ALT_INV_Selector0~0_combout\ $end
$var wire 1 M \ALT_INV_state.s3~q\ $end
$var wire 1 N \ALT_INV_state.s0~q\ $end
$var wire 1 O \ALT_INV_state.s1~q\ $end
$var wire 1 P \ALT_INV_Selector0~1_combout\ $end
$var wire 1 Q \ALT_INV_state.s2~q\ $end
$var wire 1 R \ALT_INV_state.s4~q\ $end
$var wire 1 S \ALT_INV_Selector0~2_combout\ $end
$var wire 1 T \ALT_INV_x[1]~input_o\ $end
$var wire 1 U \ALT_INV_x[2]~input_o\ $end
$var wire 1 V \ALT_INV_x[0]~input_o\ $end
$var wire 1 W \ALT_INV_rst~input_o\ $end
$upscope $end
$upscope $end
$enddefinitions $end
#0
$dumpvars
0!
0"
0#
0'
1(
x)
1*
1+
1,
1-
1.
1/
00
01
05
06
07
08
19
1:
0;
0<
1=
0>
1?
0@
0A
0B
0C
0D
1E
1F
0G
1H
0I
1J
1K
0L
1M
1N
1O
0P
1Q
1R
1S
0T
1U
0V
1W
0$
1%
1&
02
13
14
$end
#5000
1!
10
17
1>
1@
1I
0O
0N
0?
1G
0F
1P
0S
16
15
1"
#10000
0!
00
07
#15000
1!
10
17
0@
1A
0Q
1O
1F
0G
1S
0P
#20000
0!
00
07
#25000
1!
10
17
0A
1B
0M
1Q
1G
0S
0H
#30000
0!
00
07
#35000
1!
10
17
0B
1C
0I
0R
1M
06
05
0"
#40000
0!
00
07
#45000
1!
10
17
0C
1D
0J
1R
0E
1L
#50000
0!
00
07
#55000
1!
10
17
1<
0D
1J
0K
0=
#60000
0!
00
07
#65000
1!
10
17
0<
0>
1N
1K
1=
1E
1?
0G
1S
0L
1H
#70000
0!
00
07
#75000
1!
10
17
1>
1@
1I
0O
0N
0?
1G
0F
1P
0S
16
15
1"
#80000
0!
00
07
#85000
1!
10
17
0@
1A
0Q
1O
1F
0G
1S
0P
#90000
0!
00
07
#95000
1!
10
17
0A
1B
0M
1Q
1G
0S
0H
#100000
0!
00
07
#105000
1!
10
17
0B
1C
0I
0R
1M
06
05
0"
#110000
0!
00
07
#115000
1!
10
17
0C
1D
0J
1R
0E
1L
#120000
0!
00
07
#125000
1!
10
17
1<
0D
1J
0K
0=
#130000
0!
00
07
#135000
1!
10
17
0<
0>
1N
1K
1=
1E
1?
0G
1S
0L
1H
#140000
0!
00
07
#145000
1!
10
17
1>
1@
1I
0O
0N
0?
1G
0F
1P
0S
16
15
1"
#150000
0!
00
07
#155000
1!
10
17
0@
1A
0Q
1O
1F
0G
1S
0P
#160000
0!
00
07
#165000
1!
10
17
0A
1B
0M
1Q
1G
0S
0H
#170000
0!
00
07
#175000
1!
10
17
0B
1C
0I
0R
1M
06
05
0"
#180000
0!
00
07
#185000
1!
10
17
0C
1D
0J
1R
0E
1L
#190000
0!
00
07
#195000
1!
10
17
1<
0D
1J
0K
0=
#200000
0!
00
07
#205000
1!
10
17
0<
0>
1N
1K
1=
1E
1?
0G
1S
0L
1H
#210000
0!
00
07
#215000
1!
10
17
1>
1@
1I
0O
0N
0?
1G
0F
1P
0S
16
15
1"
#220000
0!
00
07
#225000
1!
10
17
0@
1A
0Q
1O
1F
0G
1S
0P
#230000
0!
00
07
#235000
1!
10
17
0A
1B
0M
1Q
1G
0S
0H
#240000
0!
00
07
#245000
1!
10
17
0B
1C
0I
0R
1M
06
05
0"
#250000
0!
00
07
#255000
1!
10
17
0C
1D
0J
1R
0E
1L
#260000
0!
00
07
#265000
1!
10
17
1<
0D
1J
0K
0=
#270000
0!
00
07
#275000
1!
10
17
0<
0>
1N
1K
1=
1E
1?
0G
1S
0L
1H
#280000
0!
00
07
#285000
1!
10
17
1>
1@
1I
0O
0N
0?
1G
0F
1P
0S
16
15
1"
#290000
0!
00
07
#295000
1!
10
17
0@
1A
0Q
1O
1F
0G
1S
0P
#300000
0!
00
07
#305000
1!
10
17
0A
1B
0M
1Q
1G
0S
0H
#310000
0!
00
07
#315000
1!
10
17
0B
1C
0I
0R
1M
06
05
0"
#320000
0!
00
07
#325000
1!
10
17
0C
1D
0J
1R
0E
1L
#330000
0!
00
07
#335000
1!
10
17
1<
0D
1J
0K
0=
#340000
0!
00
07
#345000
1!
10
17
0<
0>
1N
1K
1=
1E
1?
0G
1S
0L
1H
#350000
0!
00
07
#355000
1!
10
17
1>
1@
1I
0O
0N
0?
1G
0F
1P
0S
16
15
1"
#360000
0!
00
07
#365000
1!
10
17
0@
1A
0Q
1O
1F
0G
1S
0P
#370000
0!
00
07
#375000
1!
10
17
0A
1B
0M
1Q
1G
0S
0H
#380000
0!
00
07
#385000
1!
10
17
0B
1C
0I
0R
1M
06
05
0"
#390000
0!
00
07
#395000
1!
10
17
0C
1D
0J
1R
0E
1L
#400000
0!
00
07
#405000
1!
10
17
1<
0D
1J
0K
0=
#410000
0!
00
07
#415000
1!
10
17
0<
0>
1N
1K
1=
1E
1?
0G
1S
0L
1H
#420000
0!
00
07
#425000
1!
10
17
1>
1@
1I
0O
0N
0?
1G
0F
1P
0S
16
15
1"
#430000
0!
00
07
#435000
1!
10
17
0@
1A
0Q
1O
1F
0G
1S
0P
#440000
0!
00
07
#445000
1!
10
17
0A
1B
0M
1Q
1G
0S
0H
#450000
0!
00
07
#455000
1!
10
17
0B
1C
0I
0R
1M
06
05
0"
#460000
0!
00
07
#465000
1!
10
17
0C
1D
0J
1R
0E
1L
#470000
0!
00
07
#475000
1!
10
17
1<
0D
1J
0K
0=
#480000
0!
00
07
#485000
1!
10
17
0<
0>
1N
1K
1=
1E
1?
0G
1S
0L
1H
#490000
0!
00
07
#495000
1!
10
17
1>
1@
1I
0O
0N
0?
1G
0F
1P
0S
16
15
1"
#500000
0!
00
07
#505000
1!
10
17
0@
1A
0Q
1O
1F
0G
1S
0P
#510000
0!
00
07
#515000
1!
10
17
0A
1B
0M
1Q
1G
0S
0H
#520000
0!
00
07
#525000
1!
10
17
0B
1C
0I
0R
1M
06
05
0"
#530000
0!
00
07
#535000
1!
10
17
0C
1D
0J
1R
0E
1L
#540000
0!
00
07
#545000
1!
10
17
1<
0D
1J
0K
0=
#550000
0!
00
07
#555000
1!
10
17
0<
0>
1N
1K
1=
1E
1?
0G
1S
0L
1H
#560000
0!
00
07
#565000
1!
10
17
1>
1@
1I
0O
0N
0?
1G
0F
1P
0S
16
15
1"
#570000
0!
00
07
#575000
1!
10
17
0@
1A
0Q
1O
1F
0G
1S
0P
#580000
0!
00
07
#585000
1!
10
17
0A
1B
0M
1Q
1G
0S
0H
#590000
0!
00
07
#595000
1!
10
17
0B
1C
0I
0R
1M
06
05
0"
#600000
0!
00
07
#605000
1!
10
17
0C
1D
0J
1R
0E
1L
#610000
0!
00
07
#615000
1!
10
17
1<
0D
1J
0K
0=
#620000
0!
00
07
#625000
1!
10
17
0<
0>
1N
1K
1=
1E
1?
0G
1S
0L
1H
#630000
0!
00
07
#635000
1!
10
17
1>
1@
1I
0O
0N
0?
1G
0F
1P
0S
16
15
1"
#640000
0!
00
07
#645000
1!
10
17
0@
1A
0Q
1O
1F
0G
1S
0P
#650000
0!
00
07
#655000
1!
10
17
0A
1B
0M
1Q
1G
0S
0H
#660000
0!
00
07
#665000
1!
10
17
0B
1C
0I
0R
1M
06
05
0"
#670000
0!
00
07
#675000
1!
10
17
0C
1D
0J
1R
0E
1L
#680000
0!
00
07
#685000
1!
10
17
1<
0D
1J
0K
0=
#690000
0!
00
07
#695000
1!
10
17
0<
0>
1N
1K
1=
1E
1?
0G
1S
0L
1H
#700000
0!
00
07
#705000
1!
10
17
1>
1@
1I
0O
0N
0?
1G
0F
1P
0S
16
15
1"
#710000
0!
00
07
#715000
1!
10
17
0@
1A
0Q
1O
1F
0G
1S
0P
#720000
0!
00
07
#725000
1!
10
17
0A
1B
0M
1Q
1G
0S
0H
#730000
0!
00
07
#735000
1!
10
17
0B
1C
0I
0R
1M
06
05
0"
#740000
0!
00
07
#745000
1!
10
17
0C
1D
0J
1R
0E
1L
#750000
0!
00
07
#755000
1!
10
17
1<
0D
1J
0K
0=
#760000
0!
00
07
#765000
1!
10
17
0<
0>
1N
1K
1=
1E
1?
0G
1S
0L
1H
#770000
0!
00
07
#775000
1!
10
17
1>
1@
1I
0O
0N
0?
1G
0F
1P
0S
16
15
1"
#780000
0!
00
07
#785000
1!
10
17
0@
1A
0Q
1O
1F
0G
1S
0P
#790000
0!
00
07
#795000
1!
10
17
0A
1B
0M
1Q
1G
0S
0H
#800000
0!
00
07
#805000
1!
10
17
0B
1C
0I
0R
1M
06
05
0"
#810000
0!
00
07
#815000
1!
10
17
0C
1D
0J
1R
0E
1L
#820000
0!
00
07
#825000
1!
10
17
1<
0D
1J
0K
0=
#830000
0!
00
07
#835000
1!
10
17
0<
0>
1N
1K
1=
1E
1?
0G
1S
0L
1H
#840000
0!
00
07
#845000
1!
10
17
1>
1@
1I
0O
0N
0?
1G
0F
1P
0S
16
15
1"
#850000
0!
00
07
#855000
1!
10
17
0@
1A
0Q
1O
1F
0G
1S
0P
#860000
0!
00
07
#865000
1!
10
17
0A
1B
0M
1Q
1G
0S
0H
#870000
0!
00
07
#875000
1!
10
17
0B
1C
0I
0R
1M
06
05
0"
#880000
0!
00
07
#885000
1!
10
17
0C
1D
0J
1R
0E
1L
#890000
0!
00
07
#895000
1!
10
17
1<
0D
1J
0K
0=
#900000
0!
00
07
#905000
1!
10
17
0<
0>
1N
1K
1=
1E
1?
0G
1S
0L
1H
#910000
0!
00
07
#915000
1!
10
17
1>
1@
1I
0O
0N
0?
1G
0F
1P
0S
16
15
1"
#920000
0!
00
07
#925000
1!
10
17
0@
1A
0Q
1O
1F
0G
1S
0P
#930000
0!
00
07
#935000
1!
10
17
0A
1B
0M
1Q
1G
0S
0H
#940000
0!
00
07
#945000
1!
10
17
0B
1C
0I
0R
1M
06
05
0"
#950000
0!
00
07
#955000
1!
10
17
0C
1D
0J
1R
0E
1L
#960000
0!
00
07
#965000
1!
10
17
1<
0D
1J
0K
0=
#970000
0!
00
07
#975000
1!
10
17
0<
0>
1N
1K
1=
1E
1?
0G
1S
0L
1H
#980000
0!
00
07
#985000
1!
10
17
1>
1@
1I
0O
0N
0?
1G
0F
1P
0S
16
15
1"
#990000
0!
00
07
#995000
1!
10
17
0@
1A
0Q
1O
1F
0G
1S
0P
