counter_module/simulation/qsim/counter_module.msim.vcd
$comment
	File created using the following command:
		vcd file counter_module.msim.vcd -direction
$end
$date
	Tue Oct 17 20:56:05 2023
$end
$version
	ModelSim Version 10.5b
$end
$timescale
	1ps
$end

$scope module counter_module_vhd_vec_tst $end
$var wire 1 ! clk $end
$var wire 1 " count [2] $end
$var wire 1 # count [1] $end
$var wire 1 $ count [0] $end
$var wire 1 % rst $end

$scope module i1 $end
$var wire 1 & gnd $end
$var wire 1 ' vcc $end
$var wire 1 ( unknown $end
$var wire 1 ) devoe $end
$var wire 1 * devclrn $end
$var wire 1 + devpor $end
$var wire 1 , ww_devoe $end
$var wire 1 - ww_devclrn $end
$var wire 1 . ww_devpor $end
$var wire 1 / ww_clk $end
$var wire 1 0 ww_rst $end
$var wire 1 1 ww_count [2] $end
$var wire 1 2 ww_count [1] $end
$var wire 1 3 ww_count [0] $end
$var wire 1 4 \count[0]~output_o\ $end
$var wire 1 5 \count[1]~output_o\ $end
$var wire 1 6 \count[2]~output_o\ $end
$var wire 1 7 \clk~input_o\ $end
$var wire 1 8 \current_state.STATE_1~0_combout\ $end
$var wire 1 9 \rst~input_o\ $end
$var wire 1 : \current_state.STATE_1~q\ $end
$var wire 1 ; \current_state.STATE_2~q\ $end
$var wire 1 < \current_state.STATE_3~q\ $end
$var wire 1 = \current_state.STATE_4~q\ $end
$var wire 1 > \current_state.STATE_5~q\ $end
$var wire 1 ? \current_state.STATE_0~0_combout\ $end
$var wire 1 @ \current_state.STATE_0~q\ $end
$var wire 1 A \WideOr0~combout\ $end
$var wire 1 B \count~4_combout\ $end
$var wire 1 C \count~5_combout\ $end
$var wire 1 D \ALT_INV_rst~input_o\ $end
$var wire 1 E \ALT_INV_current_state.STATE_5~q\ $end
$var wire 1 F \ALT_INV_current_state.STATE_3~q\ $end
$var wire 1 G \ALT_INV_WideOr0~combout\ $end
$var wire 1 H \ALT_INV_current_state.STATE_4~q\ $end
$var wire 1 I \ALT_INV_current_state.STATE_2~q\ $end
$var wire 1 J \ALT_INV_current_state.STATE_0~q\ $end
$upscope $end
$upscope $end
$enddefinitions $end
#0
$dumpvars
0!
0%
0&
1'
x(
1)
1*
1+
1,
1-
1.
0/
00
04
05
06
07
18
09
0:
0;
0<
0=
0>
1?
0@
1A
0B
0C
1D
1E
1F
0G
1H
1I
1J
01
02
03
0"
0#
0$
$end
#5000
1!
1/
17
1:
1@
0J
08
0A
1G
14
13
1$
#10000
0!
0/
07
#15000
1!
1/
17
0:
1;
0I
1A
1B
0G
15
04
12
03
1#
0$
#20000
0!
0/
07
#25000
1!
1/
17
0;
1<
0F
1I
0A
1G
14
13
1$
#30000
0!
0/
07
#35000
1!
1/
17
0<
1=
0H
1F
0B
1A
1C
0G
16
05
04
11
02
03
0#
1"
0$
#40000
0!
0/
07
#45000
1!
1/
17
0=
1>
0E
1H
0A
0?
1G
14
13
1$
#50000
0!
0/
07
#55000
1!
1/
17
0>
0@
1J
1E
1?
0C
18
1A
0G
06
04
01
03
0"
0$
#60000
0!
0/
07
#65000
1!
1/
17
1:
1@
0J
08
0A
1G
14
13
1$
#70000
0!
0/
07
#75000
1!
1/
17
0:
1;
0I
1A
1B
0G
15
04
12
03
1#
0$
#80000
0!
0/
07
#85000
1!
1/
17
0;
1<
0F
1I
0A
1G
14
13
1$
#90000
0!
0/
07
#95000
1!
1/
17
0<
1=
0H
1F
0B
1A
1C
0G
16
05
04
11
02
03
0#
1"
0$
#100000
0!
0/
07
#105000
1!
1/
17
0=
1>
0E
1H
0A
0?
1G
14
13
1$
#110000
0!
0/
07
#115000
1!
1/
17
0>
0@
1J
1E
1?
0C
18
1A
0G
06
04
01
03
0"
0$
#120000
0!
0/
07
#125000
1!
1/
17
1:
1@
0J
08
0A
1G
14
13
1$
#130000
0!
0/
07
#135000
1!
1/
17
0:
1;
0I
1A
1B
0G
15
04
12
03
1#
0$
#140000
0!
0/
07
#145000
1!
1/
17
0;
1<
0F
1I
0A
1G
14
13
1$
#150000
0!
0/
07
#155000
1!
1/
17
0<
1=
0H
1F
0B
1A
1C
0G
16
05
04
11
02
03
0#
1"
0$
#160000
0!
0/
07
#165000
1!
1/
17
0=
1>
0E
1H
0A
0?
1G
14
13
1$
#170000
0!
0/
07
#175000
1!
1/
17
0>
0@
1J
1E
1?
0C
18
1A
0G
06
04
01
03
0"
0$
#180000
0!
0/
07
#185000
1!
1/
17
1:
1@
0J
08
0A
1G
14
13
1$
#190000
0!
0/
07
#195000
1!
1/
17
0:
1;
0I
1A
1B
0G
15
04
12
03
1#
0$
#200000
0!
0/
07
#205000
1!
1/
17
0;
1<
0F
1I
0A
1G
14
13
1$
#210000
0!
0/
07
#215000
1!
1/
17
0<
1=
0H
1F
0B
1A
1C
0G
16
05
04
11
02
03
0#
1"
0$
#220000
0!
0/
07
#225000
1!
1/
17
0=
1>
0E
1H
0A
0?
1G
14
13
1$
#230000
0!
0/
07
#235000
1!
1/
17
0>
0@
1J
1E
1?
0C
18
1A
0G
06
04
01
03
0"
0$
#240000
0!
0/
07
#245000
1!
1/
17
1:
1@
0J
08
0A
1G
14
13
1$
#250000
0!
0/
07
#255000
1!
1/
17
0:
1;
0I
1A
1B
0G
15
04
12
03
1#
0$
#260000
0!
0/
07
#265000
1!
1/
17
0;
1<
0F
1I
0A
1G
14
13
1$
#270000
0!
0/
07
#275000
1!
1/
17
0<
1=
0H
1F
0B
1A
1C
0G
16
05
04
11
02
03
0#
1"
0$
#280000
0!
0/
07
#285000
1!
1/
17
0=
1>
0E
1H
0A
0?
1G
14
13
1$
#290000
0!
0/
07
#295000
1!
1/
17
0>
0@
1J
1E
1?
0C
18
1A
0G
06
04
01
03
0"
0$
#300000
0!
0/
07
#305000
1!
1/
17
1:
1@
0J
08
0A
1G
14
13
1$
#310000
0!
0/
07
#315000
1!
1/
17
0:
1;
0I
1A
1B
0G
15
04
12
03
1#
0$
#320000
0!
0/
07
#325000
1!
1/
17
0;
1<
0F
1I
0A
1G
14
13
1$
#330000
0!
0/
07
#335000
1!
1/
17
0<
1=
0H
1F
0B
1A
1C
0G
16
05
04
11
02
03
0#
1"
0$
#340000
0!
0/
07
#345000
1!
1/
17
0=
1>
0E
1H
0A
0?
1G
14
13
1$
#350000
0!
0/
07
#355000
1!
1/
17
0>
0@
1J
1E
1?
0C
18
1A
0G
06
04
01
03
0"
0$
#360000
0!
0/
07
#365000
1!
1/
17
1:
1@
0J
08
0A
1G
14
13
1$
#370000
0!
0/
07
#375000
1!
1/
17
0:
1;
0I
1A
1B
0G
15
04
12
03
1#
0$
#380000
0!
0/
07
#385000
1!
1/
17
0;
1<
0F
1I
0A
1G
14
13
1$
#390000
0!
0/
07
#395000
1!
1/
17
0<
1=
0H
1F
0B
1A
1C
0G
16
05
04
11
02
03
0#
1"
0$
#400000
0!
0/
07
#405000
1!
1/
17
0=
1>
0E
1H
0A
0?
1G
14
13
1$
#410000
0!
0/
07
#415000
1!
1/
17
0>
0@
1J
1E
1?
0C
18
1A
0G
06
04
01
03
0"
0$
#420000
0!
0/
07
#425000
1!
1/
17
1:
1@
0J
08
0A
1G
14
13
1$
#430000
0!
0/
07
#435000
1!
1/
17
0:
1;
0I
1A
1B
0G
15
04
12
03
1#
0$
#440000
0!
0/
07
#445000
1!
1/
17
0;
1<
0F
1I
0A
1G
14
13
1$
#450000
0!
0/
07
#455000
1!
1/
17
0<
1=
0H
1F
0B
1A
1C
0G
16
05
04
11
02
03
0#
1"
0$
#460000
0!
0/
07
#465000
1!
1/
17
0=
1>
0E
1H
0A
0?
1G
14
13
1$
#470000
0!
0/
07
#475000
1!
1/
17
0>
0@
1J
1E
1?
0C
18
1A
0G
06
04
01
03
0"
0$
#480000
0!
0/
07
#485000
1!
1/
17
1:
1@
0J
08
0A
1G
14
13
1$
#490000
0!
0/
07
#495000
1!
1/
17
0:
1;
0I
1A
1B
0G
15
04
12
03
1#
0$
#500000
0!
0/
07
#505000
1!
1/
17
0;
1<
0F
1I
0A
1G
14
13
1$
#510000
0!
0/
07
#515000
1!
1/
17
0<
1=
0H
1F
0B
1A
1C
0G
16
05
04
11
02
03
0#
1"
0$
#520000
0!
1%
0/
10
19
07
0D
0=
0@
1J
1H
0C
18
06
01
0"
#525000
1!
1/
17
#530000
0!
0/
07
#535000
1!
1/
17
#540000
0!
0/
07
#545000
1!
1/
17
#550000
0!
0/
07
#555000
1!
1/
17
#560000
0!
0/
07
#565000
1!
1/
17
#570000
0!
0/
07
#575000
1!
1/
17
#580000
0!
0/
07
#585000
1!
1/
17
#590000
0!
0/
07
#595000
1!
1/
17
#600000
0!
0/
07
#605000
1!
1/
17
#610000
0!
0/
07
#615000
1!
1/
17
#620000
0!
0/
07
#625000
1!
1/
17
#630000
0!
0/
07
#635000
1!
1/
17
#640000
0!
0/
07
#645000
1!
1/
17
#650000
0!
0%
0/
00
09
07
1D
#655000
1!
1/
17
1:
1@
0J
08
0A
1G
14
13
1$
#660000
0!
0/
07
#665000
1!
1/
17
0:
1;
0I
1A
1B
0G
15
04
12
03
1#
0$
#670000
0!
0/
07
#675000
1!
1/
17
0;
1<
0F
1I
0A
1G
14
13
1$
#680000
0!
0/
07
#685000
1!
1/
17
0<
1=
0H
1F
0B
1A
1C
0G
16
05
04
11
02
03
0#
1"
0$
#690000
0!
0/
07
#695000
1!
1/
17
0=
1>
0E
1H
0A
0?
1G
14
13
1$
#700000
0!
0/
07
#705000
1!
1/
17
0>
0@
1J
1E
1?
0C
18
1A
0G
06
04
01
03
0"
0$
#710000
0!
0/
07
#715000
1!
1/
17
1:
1@
0J
08
0A
1G
14
13
1$
#720000
0!
0/
07
#725000
1!
1/
17
0:
1;
0I
1A
1B
0G
15
04
12
03
1#
0$
#730000
0!
0/
07
#735000
1!
1/
17
0;
1<
0F
1I
0A
1G
14
13
1$
#740000
0!
0/
07
#745000
1!
1/
17
0<
1=
0H
1F
0B
1A
1C
0G
16
05
04
11
02
03
0#
1"
0$
#750000
0!
0/
07
#755000
1!
1/
17
0=
1>
0E
1H
0A
0?
1G
14
13
1$
#760000
0!
0/
07
#765000
1!
1/
17
0>
0@
1J
1E
1?
0C
18
1A
0G
06
04
01
03
0"
0$
#770000
0!
0/
07
#775000
1!
1/
17
1:
1@
0J
08
0A
1G
14
13
1$
#780000
0!
0/
07
#785000
1!
1/
17
0:
1;
0I
1A
1B
0G
15
04
12
03
1#
0$
#790000
0!
0/
07
#795000
1!
1/
17
0;
1<
0F
1I
0A
1G
14
13
1$
#800000
0!
0/
07
#805000
1!
1/
17
0<
1=
0H
1F
0B
1A
1C
0G
16
05
04
11
02
03
0#
1"
0$
#810000
0!
0/
07
#815000
1!
1/
17
0=
1>
0E
1H
0A
0?
1G
14
13
1$
#820000
0!
0/
07
#825000
1!
1/
17
0>
0@
1J
1E
1?
0C
18
1A
0G
06
04
01
03
0"
0$
#830000
0!
0/
07
#835000
1!
1/
17
1:
1@
0J
08
0A
1G
14
13
1$
#840000
0!
0/
07
#845000
1!
1/
17
0:
1;
0I
1A
1B
0G
15
04
12
03
1#
0$
#850000
0!
0/
07
#855000
1!
1/
17
0;
1<
0F
1I
0A
1G
14
13
1$
#860000
0!
0/
07
#865000
1!
1/
17
0<
1=
0H
1F
0B
1A
1C
0G
16
05
04
11
02
03
0#
1"
0$
#870000
0!
0/
07
#875000
1!
1/
17
0=
1>
0E
1H
0A
0?
1G
14
13
1$
#880000
0!
0/
07
#885000
1!
1/
17
0>
0@
1J
1E
1?
0C
18
1A
0G
06
04
01
03
0"
0$
#890000
0!
0/
07
#895000
1!
1/
17
1:
1@
0J
08
0A
1G
14
13
1$
#900000
0!
0/
07
#905000
1!
1/
17
0:
1;
0I
1A
1B
0G
15
04
12
03
1#
0$
#910000
0!
0/
07
#915000
1!
1/
17
0;
1<
0F
1I
0A
1G
14
13
1$
#920000
0!
0/
07
#925000
1!
1/
17
0<
1=
0H
1F
0B
1A
1C
0G
16
05
04
11
02
03
0#
1"
0$
#930000
0!
0/
07
#935000
1!
1/
17
0=
1>
0E
1H
0A
0?
1G
14
13
1$
#940000
0!
0/
07
#945000
1!
1/
17
0>
0@
1J
1E
1?
0C
18
1A
0G
06
04
01
03
0"
0$
#950000
0!
0/
07
#955000
1!
1/
17
1:
1@
0J
08
0A
1G
14
13
1$
#960000
0!
0/
07
#965000
1!
1/
17
0:
1;
0I
1A
1B
0G
15
04
12
03
1#
0$
#970000
0!
0/
07
#975000
1!
1/
17
0;
1<
0F
1I
0A
1G
14
13
1$
#980000
0!
0/
07
#985000
1!
1/
17
0<
1=
0H
1F
0B
1A
1C
0G
16
05
04
11
02
03
0#
1"
0$
#990000
0!
0/
07
#995000
1!
1/
17
0=
1>
0E
1H
0A
0?
1G
14
13
1$
