counter_module/simulation/qsim/counter_module.msim.vcd
$comment
	File created using the following command:
		vcd file counter_module.msim.vcd -direction
$end
$date
	Tue Oct 10 19:26:10 2023
$end
$version
	ModelSim Version 10.5b
$end
$timescale
	1ps
$end

$scope module counter_module_vhd_vec_tst $end
$var wire 1 ! clk $end
$var wire 1 " count [2] $end
$var wire 1 # count [1] $end
$var wire 1 $ count [0] $end
$var wire 1 % rst $end

$scope module i1 $end
$var wire 1 & gnd $end
$var wire 1 ' vcc $end
$var wire 1 ( unknown $end
$var wire 1 ) devoe $end
$var wire 1 * devclrn $end
$var wire 1 + devpor $end
$var wire 1 , ww_devoe $end
$var wire 1 - ww_devclrn $end
$var wire 1 . ww_devpor $end
$var wire 1 / ww_clk $end
$var wire 1 0 ww_rst $end
$var wire 1 1 ww_count [2] $end
$var wire 1 2 ww_count [1] $end
$var wire 1 3 ww_count [0] $end
$var wire 1 4 \count[0]~output_o\ $end
$var wire 1 5 \count[1]~output_o\ $end
$var wire 1 6 \count[2]~output_o\ $end
$var wire 1 7 \clk~input_o\ $end
$var wire 1 8 \tmp_count[0]~2_combout\ $end
$var wire 1 9 \rst~input_o\ $end
$var wire 1 : \tmp_count~1_combout\ $end
$var wire 1 ; \tmp_count~0_combout\ $end
$var wire 1 < tmp_count [2] $end
$var wire 1 = tmp_count [1] $end
$var wire 1 > tmp_count [0] $end
$var wire 1 ? \ALT_INV_rst~input_o\ $end
$var wire 1 @ ALT_INV_tmp_count [2] $end
$var wire 1 A ALT_INV_tmp_count [1] $end
$var wire 1 B ALT_INV_tmp_count [0] $end
$upscope $end
$upscope $end
$enddefinitions $end
#0
$dumpvars
0!
1%
0&
1'
x(
1)
1*
1+
1,
1-
1.
0/
10
04
05
06
07
18
19
0:
0;
0?
01
02
03
0<
0=
0>
1@
1A
1B
0"
0#
0$
$end
#5000
1!
1/
17
#10000
0!
0/
07
#15000
1!
1/
17
#20000
0!
0/
07
#25000
1!
1/
17
#30000
0!
0/
07
#35000
1!
1/
17
#40000
0!
0/
07
#45000
1!
1/
17
#50000
0!
0/
07
#55000
1!
1/
17
#60000
0!
0/
07
#65000
1!
1/
17
#70000
0!
0/
07
#75000
1!
1/
17
#80000
0!
0/
07
#85000
1!
1/
17
#90000
0!
0/
07
#95000
1!
1/
17
#100000
0!
0%
0/
00
09
07
1?
#105000
1!
1/
17
1>
0B
08
1;
14
13
1$
#110000
0!
0/
07
#115000
1!
1/
17
0>
1=
0A
1B
18
15
04
12
03
0$
1#
#120000
0!
0/
07
#125000
1!
1/
17
1>
0B
08
1:
0;
14
13
1$
#130000
0!
0/
07
#135000
1!
1/
17
0>
1<
0=
1A
0@
1B
18
05
16
04
02
11
03
0$
0#
1"
#140000
0!
0/
07
#145000
1!
1/
17
1>
0B
08
0:
14
13
1$
#150000
0!
0/
07
#155000
1!
1/
17
0>
0<
1@
1B
18
06
04
01
03
0$
0"
#160000
0!
0/
07
#165000
1!
1/
17
1>
0B
08
1;
14
13
1$
#170000
0!
0/
07
#175000
1!
1/
17
0>
1=
0A
1B
18
15
04
12
03
0$
1#
#180000
0!
0/
07
#185000
1!
1/
17
1>
0B
08
1:
0;
14
13
1$
#190000
0!
0/
07
#195000
1!
1/
17
0>
1<
0=
1A
0@
1B
18
05
16
04
02
11
03
0$
0#
1"
#200000
0!
0/
07
#205000
1!
1/
17
1>
0B
08
0:
14
13
1$
#210000
0!
0/
07
#215000
1!
1/
17
0>
0<
1@
1B
18
06
04
01
03
0$
0"
#220000
0!
0/
07
#225000
1!
1/
17
1>
0B
08
1;
14
13
1$
#230000
0!
0/
07
#235000
1!
1/
17
0>
1=
0A
1B
18
15
04
12
03
0$
1#
#240000
0!
0/
07
#245000
1!
1/
17
1>
0B
08
1:
0;
14
13
1$
#250000
0!
1%
0/
10
19
07
0?
0>
0=
1A
1B
18
0:
05
04
02
03
0$
0#
#255000
1!
1/
17
#260000
0!
0/
07
#265000
1!
1/
17
#270000
0!
0/
07
#275000
1!
1/
17
#280000
0!
0/
07
#285000
1!
1/
17
#290000
0!
0/
07
#295000
1!
1/
17
#300000
0!
0/
07
#305000
1!
1/
17
#310000
0!
0/
07
#315000
1!
1/
17
#320000
0!
0/
07
#325000
1!
1/
17
#330000
0!
0/
07
#335000
1!
1/
17
#340000
0!
0/
07
#345000
1!
1/
17
#350000
0!
0/
07
#355000
1!
1/
17
#360000
0!
0/
07
#365000
1!
1/
17
#370000
0!
0/
07
#375000
1!
1/
17
#380000
0!
0/
07
#385000
1!
1/
17
#390000
0!
0/
07
#395000
1!
1/
17
#400000
0!
0/
07
#405000
1!
1/
17
#410000
0!
0/
07
#415000
1!
1/
17
#420000
0!
0/
07
#425000
1!
1/
17
#430000
0!
0/
07
#435000
1!
1/
17
#440000
0!
0/
07
#445000
1!
1/
17
#450000
0!
0/
07
#455000
1!
1/
17
#460000
0!
0/
07
#465000
1!
1/
17
#470000
0!
0/
07
#475000
1!
1/
17
#480000
0!
0/
07
#485000
1!
1/
17
#490000
0!
0/
07
#495000
1!
1/
17
#500000
0!
0%
0/
00
09
07
1?
#505000
1!
1/
17
1>
0B
08
1;
14
13
1$
#510000
0!
0/
07
#515000
1!
1/
17
0>
1=
0A
1B
18
15
04
12
03
0$
1#
#520000
0!
0/
07
#525000
1!
1/
17
1>
0B
08
1:
0;
14
13
1$
#530000
0!
0/
07
#535000
1!
1/
17
0>
1<
0=
1A
0@
1B
18
05
16
04
02
11
03
0$
0#
1"
#540000
0!
0/
07
#545000
1!
1/
17
1>
0B
08
0:
14
13
1$
#550000
0!
0/
07
#555000
1!
1/
17
0>
0<
1@
1B
18
06
04
01
03
0$
0"
#560000
0!
0/
07
#565000
1!
1/
17
1>
0B
08
1;
14
13
1$
#570000
0!
0/
07
#575000
1!
1/
17
0>
1=
0A
1B
18
15
04
12
03
0$
1#
#580000
0!
0/
07
#585000
1!
1/
17
1>
0B
08
1:
0;
14
13
1$
#590000
0!
0/
07
#595000
1!
1/
17
0>
1<
0=
1A
0@
1B
18
05
16
04
02
11
03
0$
0#
1"
#600000
0!
0/
07
#605000
1!
1/
17
1>
0B
08
0:
14
13
1$
#610000
0!
0/
07
#615000
1!
1/
17
0>
0<
1@
1B
18
06
04
01
03
0$
0"
#620000
0!
0/
07
#625000
1!
1/
17
1>
0B
08
1;
14
13
1$
#630000
0!
0/
07
#635000
1!
1/
17
0>
1=
0A
1B
18
15
04
12
03
0$
1#
#640000
0!
0/
07
#645000
1!
1/
17
1>
0B
08
1:
0;
14
13
1$
#650000
0!
0/
07
#655000
1!
1/
17
0>
1<
0=
1A
0@
1B
18
05
16
04
02
11
03
0$
0#
1"
#660000
0!
0/
07
#665000
1!
1/
17
1>
0B
08
0:
14
13
1$
#670000
0!
0/
07
#675000
1!
1/
17
0>
0<
1@
1B
18
06
04
01
03
0$
0"
#680000
0!
0/
07
#685000
1!
1/
17
1>
0B
08
1;
14
13
1$
#690000
0!
0/
07
#695000
1!
1/
17
0>
1=
0A
1B
18
15
04
12
03
0$
1#
#700000
0!
0/
07
#705000
1!
1/
17
1>
0B
08
1:
0;
14
13
1$
#710000
0!
0/
07
#715000
1!
1/
17
0>
1<
0=
1A
0@
1B
18
05
16
04
02
11
03
0$
0#
1"
#720000
0!
0/
07
#725000
1!
1/
17
1>
0B
08
0:
14
13
1$
#730000
0!
0/
07
#735000
1!
1/
17
0>
0<
1@
1B
18
06
04
01
03
0$
0"
#740000
0!
0/
07
#745000
1!
1/
17
1>
0B
08
1;
14
13
1$
#750000
0!
0/
07
#755000
1!
1/
17
0>
1=
0A
1B
18
15
04
12
03
0$
1#
#760000
0!
0/
07
#765000
1!
1/
17
1>
0B
08
1:
0;
14
13
1$
#770000
0!
0/
07
#775000
1!
1/
17
0>
1<
0=
1A
0@
1B
18
05
16
04
02
11
03
0$
0#
1"
#780000
0!
0/
07
#785000
1!
1/
17
1>
0B
08
0:
14
13
1$
#790000
0!
0/
07
#795000
1!
1/
17
0>
0<
1@
1B
18
06
04
01
03
0$
0"
#800000
0!
0/
07
#805000
1!
1/
17
1>
0B
08
1;
14
13
1$
#810000
0!
0/
07
#815000
1!
1/
17
0>
1=
0A
1B
18
15
04
12
03
0$
1#
#820000
0!
0/
07
#825000
1!
1/
17
1>
0B
08
1:
0;
14
13
1$
#830000
0!
0/
07
#835000
1!
1/
17
0>
1<
0=
1A
0@
1B
18
05
16
04
02
11
03
0$
0#
1"
#840000
0!
0/
07
#845000
1!
1/
17
1>
0B
08
0:
14
13
1$
#850000
0!
1%
0/
10
19
07
0?
0>
0<
1@
1B
18
06
04
01
03
0$
0"
#855000
1!
1/
17
#860000
0!
0/
07
#865000
1!
1/
17
#870000
0!
0/
07
#875000
1!
1/
17
#880000
0!
0/
07
#885000
1!
1/
17
#890000
0!
0/
07
#895000
1!
1/
17
#900000
0!
0/
07
#905000
1!
1/
17
#910000
0!
0/
07
#915000
1!
1/
17
#920000
0!
0/
07
#925000
1!
1/
17
#930000
0!
0/
07
#935000
1!
1/
17
#940000
0!
0/
07
#945000
1!
1/
17
#950000
0!
0/
07
#955000
1!
1/
17
#960000
0!
0/
07
#965000
1!
1/
17
#970000
0!
0/
07
#975000
1!
1/
17
#980000
0!
0/
07
#985000
1!
1/
17
#990000
0!
0/
07
#995000
1!
1/
17
