counter_module/simulation/qsim/counter_module.msim.vcd
$comment
	File created using the following command:
		vcd file counter_module.msim.vcd -direction
$end
$date
	Sat Oct 28 16:38:32 2023
$end
$version
	ModelSim Version 10.5b
$end
$timescale
	1ps
$end

$scope module counter_module_vhd_vec_tst $end
$var wire 1 ! clk $end
$var wire 1 " digit [0] $end
$var wire 1 # digit [1] $end
$var wire 1 $ digit [2] $end
$var wire 1 % digit [3] $end
$var wire 1 & digit [4] $end
$var wire 1 ' digit [5] $end
$var wire 1 ( digit [6] $end
$var wire 1 ) rst $end

$scope module i1 $end
$var wire 1 * gnd $end
$var wire 1 + vcc $end
$var wire 1 , unknown $end
$var wire 1 - devoe $end
$var wire 1 . devclrn $end
$var wire 1 / devpor $end
$var wire 1 0 ww_devoe $end
$var wire 1 1 ww_devclrn $end
$var wire 1 2 ww_devpor $end
$var wire 1 3 ww_clk $end
$var wire 1 4 ww_rst $end
$var wire 1 5 ww_digit [0] $end
$var wire 1 6 ww_digit [1] $end
$var wire 1 7 ww_digit [2] $end
$var wire 1 8 ww_digit [3] $end
$var wire 1 9 ww_digit [4] $end
$var wire 1 : ww_digit [5] $end
$var wire 1 ; ww_digit [6] $end
$var wire 1 < \digit[6]~output_o\ $end
$var wire 1 = \digit[5]~output_o\ $end
$var wire 1 > \digit[4]~output_o\ $end
$var wire 1 ? \digit[3]~output_o\ $end
$var wire 1 @ \digit[2]~output_o\ $end
$var wire 1 A \digit[1]~output_o\ $end
$var wire 1 B \digit[0]~output_o\ $end
$var wire 1 C \clk~input_o\ $end
$var wire 1 D \f1|Add0~57_sumout\ $end
$var wire 1 E \f1|Equal0~1_combout\ $end
$var wire 1 F \f1|Equal0~2_combout\ $end
$var wire 1 G \f1|Equal0~3_combout\ $end
$var wire 1 H \f1|Equal0~4_combout\ $end
$var wire 1 I \f1|Equal0~5_combout\ $end
$var wire 1 J \f1|Add0~58\ $end
$var wire 1 K \f1|Add0~61_sumout\ $end
$var wire 1 L \f1|Add0~62\ $end
$var wire 1 M \f1|Add0~65_sumout\ $end
$var wire 1 N \f1|Add0~66\ $end
$var wire 1 O \f1|Add0~69_sumout\ $end
$var wire 1 P \f1|Add0~70\ $end
$var wire 1 Q \f1|Add0~73_sumout\ $end
$var wire 1 R \f1|Add0~74\ $end
$var wire 1 S \f1|Add0~77_sumout\ $end
$var wire 1 T \f1|Add0~78\ $end
$var wire 1 U \f1|Add0~81_sumout\ $end
$var wire 1 V \f1|Add0~82\ $end
$var wire 1 W \f1|Add0~85_sumout\ $end
$var wire 1 X \f1|Add0~86\ $end
$var wire 1 Y \f1|Add0~89_sumout\ $end
$var wire 1 Z \f1|Add0~90\ $end
$var wire 1 [ \f1|Add0~93_sumout\ $end
$var wire 1 \ \f1|Add0~94\ $end
$var wire 1 ] \f1|Add0~97_sumout\ $end
$var wire 1 ^ \f1|Add0~98\ $end
$var wire 1 _ \f1|Add0~101_sumout\ $end
$var wire 1 ` \f1|Add0~102\ $end
$var wire 1 a \f1|Add0~33_sumout\ $end
$var wire 1 b \f1|Add0~34\ $end
$var wire 1 c \f1|Add0~37_sumout\ $end
$var wire 1 d \f1|Add0~38\ $end
$var wire 1 e \f1|Add0~41_sumout\ $end
$var wire 1 f \f1|Add0~42\ $end
$var wire 1 g \f1|Add0~45_sumout\ $end
$var wire 1 h \f1|Add0~46\ $end
$var wire 1 i \f1|Add0~49_sumout\ $end
$var wire 1 j \f1|Add0~50\ $end
$var wire 1 k \f1|Add0~53_sumout\ $end
$var wire 1 l \f1|Add0~54\ $end
$var wire 1 m \f1|Add0~9_sumout\ $end
$var wire 1 n \f1|Add0~10\ $end
$var wire 1 o \f1|Add0~13_sumout\ $end
$var wire 1 p \f1|Add0~14\ $end
$var wire 1 q \f1|Add0~17_sumout\ $end
$var wire 1 r \f1|Add0~18\ $end
$var wire 1 s \f1|Add0~21_sumout\ $end
$var wire 1 t \f1|Add0~22\ $end
$var wire 1 u \f1|Add0~25_sumout\ $end
$var wire 1 v \f1|Add0~26\ $end
$var wire 1 w \f1|Add0~29_sumout\ $end
$var wire 1 x \f1|Add0~30\ $end
$var wire 1 y \f1|Add0~1_sumout\ $end
$var wire 1 z \f1|Add0~2\ $end
$var wire 1 { \f1|Add0~5_sumout\ $end
$var wire 1 | \f1|Equal0~0_combout\ $end
$var wire 1 } \f1|local_out~0_combout\ $end
$var wire 1 ~ \f1|local_out~q\ $end
$var wire 1 !! \rst~input_o\ $end
$var wire 1 "! \current_state.STATE_3~q\ $end
$var wire 1 #! \current_state.STATE_4~q\ $end
$var wire 1 $! \current_state.STATE_5~q\ $end
$var wire 1 %! \current_state.STATE_0~0_combout\ $end
$var wire 1 &! \current_state.STATE_0~q\ $end
$var wire 1 '! \current_state.STATE_1~0_combout\ $end
$var wire 1 (! \current_state.STATE_1~q\ $end
$var wire 1 )! \current_state.STATE_2~q\ $end
$var wire 1 *! \Mux6~0_combout\ $end
$var wire 1 +! \Mux5~0_combout\ $end
$var wire 1 ,! \Mux4~0_combout\ $end
$var wire 1 -! \Mux3~0_combout\ $end
$var wire 1 .! \Mux2~0_combout\ $end
$var wire 1 /! \Mux4~1_combout\ $end
$var wire 1 0! \f1|iterations\ [25] $end
$var wire 1 1! \f1|iterations\ [24] $end
$var wire 1 2! \f1|iterations\ [23] $end
$var wire 1 3! \f1|iterations\ [22] $end
$var wire 1 4! \f1|iterations\ [21] $end
$var wire 1 5! \f1|iterations\ [20] $end
$var wire 1 6! \f1|iterations\ [19] $end
$var wire 1 7! \f1|iterations\ [18] $end
$var wire 1 8! \f1|iterations\ [17] $end
$var wire 1 9! \f1|iterations\ [16] $end
$var wire 1 :! \f1|iterations\ [15] $end
$var wire 1 ;! \f1|iterations\ [14] $end
$var wire 1 <! \f1|iterations\ [13] $end
$var wire 1 =! \f1|iterations\ [12] $end
$var wire 1 >! \f1|iterations\ [11] $end
$var wire 1 ?! \f1|iterations\ [10] $end
$var wire 1 @! \f1|iterations\ [9] $end
$var wire 1 A! \f1|iterations\ [8] $end
$var wire 1 B! \f1|iterations\ [7] $end
$var wire 1 C! \f1|iterations\ [6] $end
$var wire 1 D! \f1|iterations\ [5] $end
$var wire 1 E! \f1|iterations\ [4] $end
$var wire 1 F! \f1|iterations\ [3] $end
$var wire 1 G! \f1|iterations\ [2] $end
$var wire 1 H! \f1|iterations\ [1] $end
$var wire 1 I! \f1|iterations\ [0] $end
$var wire 1 J! \f1|ALT_INV_Equal0~4_combout\ $end
$var wire 1 K! \f1|ALT_INV_Equal0~3_combout\ $end
$var wire 1 L! \f1|ALT_INV_Equal0~2_combout\ $end
$var wire 1 M! \f1|ALT_INV_Equal0~1_combout\ $end
$var wire 1 N! \f1|ALT_INV_Equal0~0_combout\ $end
$var wire 1 O! \f1|ALT_INV_local_out~q\ $end
$var wire 1 P! \ALT_INV_Mux3~0_combout\ $end
$var wire 1 Q! \ALT_INV_current_state.STATE_0~q\ $end
$var wire 1 R! \ALT_INV_Mux6~0_combout\ $end
$var wire 1 S! \ALT_INV_current_state.STATE_5~q\ $end
$var wire 1 T! \ALT_INV_current_state.STATE_4~q\ $end
$var wire 1 U! \ALT_INV_current_state.STATE_3~q\ $end
$var wire 1 V! \ALT_INV_current_state.STATE_2~q\ $end
$var wire 1 W! \f1|ALT_INV_iterations\ [25] $end
$var wire 1 X! \f1|ALT_INV_iterations\ [24] $end
$var wire 1 Y! \f1|ALT_INV_iterations\ [23] $end
$var wire 1 Z! \f1|ALT_INV_iterations\ [22] $end
$var wire 1 [! \f1|ALT_INV_iterations\ [21] $end
$var wire 1 \! \f1|ALT_INV_iterations\ [20] $end
$var wire 1 ]! \f1|ALT_INV_iterations\ [19] $end
$var wire 1 ^! \f1|ALT_INV_iterations\ [18] $end
$var wire 1 _! \f1|ALT_INV_iterations\ [17] $end
$var wire 1 `! \f1|ALT_INV_iterations\ [16] $end
$var wire 1 a! \f1|ALT_INV_iterations\ [15] $end
$var wire 1 b! \f1|ALT_INV_iterations\ [14] $end
$var wire 1 c! \f1|ALT_INV_iterations\ [13] $end
$var wire 1 d! \f1|ALT_INV_iterations\ [12] $end
$var wire 1 e! \f1|ALT_INV_iterations\ [11] $end
$var wire 1 f! \f1|ALT_INV_iterations\ [10] $end
$var wire 1 g! \f1|ALT_INV_iterations\ [9] $end
$var wire 1 h! \f1|ALT_INV_iterations\ [8] $end
$var wire 1 i! \f1|ALT_INV_iterations\ [7] $end
$var wire 1 j! \f1|ALT_INV_iterations\ [6] $end
$var wire 1 k! \f1|ALT_INV_iterations\ [5] $end
$var wire 1 l! \f1|ALT_INV_iterations\ [4] $end
$var wire 1 m! \f1|ALT_INV_iterations\ [3] $end
$var wire 1 n! \f1|ALT_INV_iterations\ [2] $end
$var wire 1 o! \f1|ALT_INV_iterations\ [1] $end
$var wire 1 p! \f1|ALT_INV_iterations\ [0] $end
$upscope $end
$upscope $end
$enddefinitions $end
#0
$dumpvars
0!
1)
0*
1+
x,
1-
1.
1/
10
11
12
03
14
1<
0=
0>
0?
0@
0A
0B
0C
1D
1E
1F
0G
1H
0I
0J
0K
0L
0M
0N
0O
0P
0Q
0R
0S
0T
0U
0V
0W
0X
0Y
0Z
0[
0\
0]
0^
0_
0`
0a
0b
0c
0d
0e
0f
0g
0h
0i
0j
0k
0l
0m
0n
0o
0p
0q
0r
0s
0t
0u
0v
0w
0x
0y
0z
0{
1|
0}
0~
1!!
0"!
0#!
0$!
1%!
0&!
1'!
0(!
0)!
0*!
0+!
0,!
1-!
0.!
0/!
0J!
1K!
0L!
0M!
0N!
1O!
0P!
1Q!
1R!
1S!
1T!
1U!
1V!
05
06
07
08
09
0:
1;
00!
01!
02!
03!
04!
05!
06!
07!
08!
09!
0:!
0;!
0<!
0=!
0>!
0?!
0@!
0A!
0B!
0C!
0D!
0E!
0F!
0G!
0H!
0I!
1W!
1X!
1Y!
1Z!
1[!
1\!
1]!
1^!
1_!
1`!
1a!
1b!
1c!
1d!
1e!
1f!
1g!
1h!
1i!
1j!
1k!
1l!
1m!
1n!
1o!
1p!
0"
0#
0$
0%
0&
0'
1(
$end
#5000
1!
13
1C
1I!
0p!
0D
1J
1K
#10000
0!
03
0C
#15000
1!
13
1C
0I!
1H!
0o!
1p!
1D
0J
0K
1L
1M
1K
0L
0M
#20000
0!
03
0C
#25000
1!
13
1C
1I!
0p!
0D
1J
0K
1L
1M
#30000
0!
03
0C
#35000
1!
13
1C
0I!
0H!
1G!
0n!
1o!
1p!
1D
0J
1K
0L
1G
0M
1N
0K!
1O
1M
0N
0K
1I
1}
0O
#40000
0!
03
0C
#45000
1!
13
1C
0G!
1~
0O!
1n!
1&!
1(!
0G
0M
0}
0Q!
1K!
0'!
1+!
1,!
0-!
0I
1}
1P!
1>
1=
1?
1B
19
1:
18
15
1'
1&
1%
1"
#50000
0!
03
0C
#55000
1!
13
1C
1I!
0p!
0D
1J
1K
#60000
0!
03
0C
#65000
1!
13
1C
0I!
1H!
0o!
1p!
1D
0J
0K
1L
1M
1K
0L
0M
#70000
0!
03
0C
#75000
1!
13
1C
1I!
0p!
0D
1J
0K
1L
1M
#80000
0!
03
0C
#85000
1!
13
1C
0I!
0H!
1G!
0n!
1o!
1p!
1D
0J
1K
0L
1G
0M
1N
0K!
1O
1M
0N
0K
1I
0}
0O
#90000
0!
03
0C
#95000
1!
13
1C
0G!
0~
1O!
1n!
0G
0M
1}
1K!
0I
0}
#100000
0!
03
0C
#105000
1!
13
1C
1I!
0p!
0D
1J
1K
#110000
0!
03
0C
#115000
1!
13
1C
0I!
1H!
0o!
1p!
1D
0J
0K
1L
1M
1K
0L
0M
#120000
0!
03
0C
#125000
1!
13
1C
1I!
0p!
0D
1J
0K
1L
1M
#130000
0!
03
0C
#135000
1!
13
1C
0I!
0H!
1G!
0n!
1o!
1p!
1D
0J
1K
0L
1G
0M
1N
0K!
1O
1M
0N
0K
1I
1}
0O
#140000
0!
03
0C
#145000
1!
13
1C
0G!
1~
0O!
1n!
0(!
1)!
0G
0M
0}
0V!
1K!
1*!
0,!
1-!
1.!
0I
1}
0P!
0R!
1@
0>
0<
0?
0B
17
09
0;
08
05
0&
1$
0(
0%
0"
#150000
0!
03
0C
#155000
1!
13
1C
1I!
0p!
0D
1J
1K
#160000
0!
03
0C
#165000
1!
13
1C
0I!
1H!
0o!
1p!
1D
0J
0K
1L
1M
1K
0L
0M
#170000
0!
03
0C
#175000
1!
13
1C
1I!
0p!
0D
1J
0K
1L
1M
#180000
0!
03
0C
#185000
1!
13
1C
0I!
0H!
1G!
0n!
1o!
1p!
1D
0J
1K
0L
1G
0M
1N
0K!
1O
1M
0N
0K
1I
0}
0O
#190000
0!
03
0C
#195000
1!
13
1C
0G!
0~
1O!
1n!
0G
0M
1}
1K!
0I
0}
#200000
0!
03
0C
#205000
1!
13
1C
1I!
0p!
0D
1J
1K
#210000
0!
03
0C
#215000
1!
13
1C
0I!
1H!
0o!
1p!
1D
0J
0K
1L
1M
1K
0L
0M
#220000
0!
03
0C
#225000
1!
13
1C
1I!
0p!
0D
1J
0K
1L
1M
#230000
0!
03
0C
#235000
1!
13
1C
0I!
0H!
1G!
0n!
1o!
1p!
1D
0J
1K
0L
1G
0M
1N
0K!
1O
1M
0N
0K
1I
1}
0O
#240000
0!
03
0C
#245000
1!
13
1C
0G!
1~
0O!
1n!
1"!
0)!
0G
0M
0}
1V!
0U!
1K!
1,!
0.!
0I
1}
0@
1>
07
19
1&
0$
#250000
0!
03
0C
#255000
1!
13
1C
1I!
0p!
0D
1J
1K
#260000
0!
03
0C
#265000
1!
13
1C
0I!
1H!
0o!
1p!
1D
0J
0K
1L
1M
1K
0L
0M
#270000
0!
03
0C
#275000
1!
13
1C
1I!
0p!
0D
1J
0K
1L
1M
#280000
0!
03
0C
#285000
1!
13
1C
0I!
0H!
1G!
0n!
1o!
1p!
1D
0J
1K
0L
1G
0M
1N
0K!
1O
1M
0N
0K
1I
0}
0O
#290000
0!
03
0C
#295000
1!
13
1C
0G!
0~
1O!
1n!
0G
0M
1}
1K!
0I
0}
#300000
0!
03
0C
#305000
1!
13
1C
1I!
0p!
0D
1J
1K
#310000
0!
03
0C
#315000
1!
13
1C
0I!
1H!
0o!
1p!
1D
0J
0K
1L
1M
1K
0L
0M
#320000
0!
03
0C
#325000
1!
13
1C
1I!
0p!
0D
1J
0K
1L
1M
#330000
0!
03
0C
#335000
1!
13
1C
0I!
0H!
1G!
0n!
1o!
1p!
1D
0J
1K
0L
1G
0M
1N
0K!
1O
1M
0N
0K
1I
1}
0O
#340000
0!
03
0C
#345000
1!
13
1C
0G!
1~
0O!
1n!
0"!
1#!
0G
0M
0}
0T!
1U!
1K!
0+!
0-!
0I
1}
1P!
0=
1?
1B
0:
18
15
0'
1%
1"
#350000
0!
03
0C
#355000
1!
13
1C
1I!
0p!
0D
1J
1K
#360000
0!
03
0C
#365000
1!
13
1C
0I!
1H!
0o!
1p!
1D
0J
0K
1L
1M
1K
0L
0M
#370000
0!
03
0C
#375000
1!
13
1C
1I!
0p!
0D
1J
0K
1L
1M
#380000
0!
03
0C
#385000
1!
13
1C
0I!
0H!
1G!
0n!
1o!
1p!
1D
0J
1K
0L
1G
0M
1N
0K!
1O
1M
0N
0K
1I
0}
0O
#390000
0!
03
0C
#395000
1!
13
1C
0G!
0~
1O!
1n!
0G
0M
1}
1K!
0I
0}
#400000
0!
03
0C
#405000
1!
13
1C
1I!
0p!
0D
1J
1K
#410000
0!
03
0C
#415000
1!
13
1C
0I!
1H!
0o!
1p!
1D
0J
0K
1L
1M
1K
0L
0M
#420000
0!
03
0C
#425000
1!
13
1C
1I!
0p!
0D
1J
0K
1L
1M
#430000
0!
03
0C
#435000
1!
13
1C
0I!
0H!
1G!
0n!
1o!
1p!
1D
0J
1K
0L
1G
0M
1N
0K!
1O
1M
0N
0K
1I
1}
0O
#440000
0!
03
0C
#445000
1!
13
1C
0G!
1~
0O!
1n!
0#!
1$!
0G
0M
0}
0S!
1T!
1K!
0%!
1-!
1/!
0I
1}
0P!
1A
0?
0B
16
08
05
1#
0%
0"
#450000
0!
03
0C
#455000
1!
13
1C
1I!
0p!
0D
1J
1K
#460000
0!
03
0C
#465000
1!
13
1C
0I!
1H!
0o!
1p!
1D
0J
0K
1L
1M
1K
0L
0M
#470000
0!
03
0C
#475000
1!
13
1C
1I!
0p!
0D
1J
0K
1L
1M
#480000
0!
03
0C
#485000
1!
13
1C
0I!
0H!
1G!
0n!
1o!
1p!
1D
0J
1K
0L
1G
0M
1N
0K!
1O
1M
0N
0K
1I
0}
0O
#490000
0!
03
0C
#495000
1!
13
1C
0G!
0~
1O!
1n!
0G
0M
1}
1K!
0I
0}
#500000
0!
03
0C
#505000
1!
13
1C
1I!
0p!
0D
1J
1K
#510000
0!
03
0C
#515000
1!
13
1C
0I!
1H!
0o!
1p!
1D
0J
0K
1L
1M
1K
0L
0M
#520000
0!
03
0C
#525000
1!
13
1C
1I!
0p!
0D
1J
0K
1L
1M
#530000
0!
03
0C
#535000
1!
13
1C
0I!
0H!
1G!
0n!
1o!
1p!
1D
0J
1K
0L
1G
0M
1N
0K!
1O
1M
0N
0K
1I
1}
0O
#540000
0!
03
0C
#545000
1!
13
1C
0G!
1~
0O!
1n!
0$!
0&!
0G
0M
0}
1Q!
1S!
1K!
1%!
0*!
1'!
0,!
0/!
0I
1}
1R!
0A
0>
1<
06
09
1;
0&
0#
1(
#550000
0!
03
0C
#555000
1!
13
1C
1I!
0p!
0D
1J
1K
#560000
0!
03
0C
#565000
1!
13
1C
0I!
1H!
0o!
1p!
1D
0J
0K
1L
1M
1K
0L
0M
#570000
0!
03
0C
#575000
1!
13
1C
1I!
0p!
0D
1J
0K
1L
1M
#580000
0!
03
0C
#585000
1!
13
1C
0I!
0H!
1G!
0n!
1o!
1p!
1D
0J
1K
0L
1G
0M
1N
0K!
1O
1M
0N
0K
1I
0}
0O
#590000
0!
03
0C
#595000
1!
13
1C
0G!
0~
1O!
1n!
0G
0M
1}
1K!
0I
0}
#600000
0!
03
0C
#605000
1!
13
1C
1I!
0p!
0D
1J
1K
#610000
0!
03
0C
#615000
1!
13
1C
0I!
1H!
0o!
1p!
1D
0J
0K
1L
1M
1K
0L
0M
#620000
0!
03
0C
#625000
1!
13
1C
1I!
0p!
0D
1J
0K
1L
1M
#630000
0!
03
0C
#635000
1!
13
1C
0I!
0H!
1G!
0n!
1o!
1p!
1D
0J
1K
0L
1G
0M
1N
0K!
1O
1M
0N
0K
1I
1}
0O
#640000
0!
03
0C
#645000
1!
13
1C
0G!
1~
0O!
1n!
1&!
1(!
0G
0M
0}
0Q!
1K!
0'!
1+!
1,!
0-!
0I
1}
1P!
1>
1=
1?
1B
19
1:
18
15
1'
1&
1%
1"
#650000
0!
03
0C
#655000
1!
13
1C
1I!
0p!
0D
1J
1K
#660000
0!
03
0C
#665000
1!
13
1C
0I!
1H!
0o!
1p!
1D
0J
0K
1L
1M
1K
0L
0M
#670000
0!
03
0C
#675000
1!
13
1C
1I!
0p!
0D
1J
0K
1L
1M
#680000
0!
03
0C
#685000
1!
13
1C
0I!
0H!
1G!
0n!
1o!
1p!
1D
0J
1K
0L
1G
0M
1N
0K!
1O
1M
0N
0K
1I
0}
0O
#690000
0!
03
0C
#695000
1!
13
1C
0G!
0~
1O!
1n!
0G
0M
1}
1K!
0I
0}
#700000
0!
03
0C
#705000
1!
13
1C
1I!
0p!
0D
1J
1K
#710000
0!
03
0C
#715000
1!
13
1C
0I!
1H!
0o!
1p!
1D
0J
0K
1L
1M
1K
0L
0M
#720000
0!
03
0C
#725000
1!
13
1C
1I!
0p!
0D
1J
0K
1L
1M
#730000
0!
03
0C
#735000
1!
13
1C
0I!
0H!
1G!
0n!
1o!
1p!
1D
0J
1K
0L
1G
0M
1N
0K!
1O
1M
0N
0K
1I
1}
0O
#740000
0!
03
0C
#745000
1!
13
1C
0G!
1~
0O!
1n!
0(!
1)!
0G
0M
0}
0V!
1K!
1*!
0,!
1-!
1.!
0I
1}
0P!
0R!
1@
0>
0<
0?
0B
17
09
0;
08
05
0&
1$
0(
0%
0"
#750000
0!
03
0C
#755000
1!
13
1C
1I!
0p!
0D
1J
1K
#760000
0!
03
0C
#765000
1!
13
1C
0I!
1H!
0o!
1p!
1D
0J
0K
1L
1M
1K
0L
0M
#770000
0!
03
0C
#775000
1!
13
1C
1I!
0p!
0D
1J
0K
1L
1M
#780000
0!
03
0C
#785000
1!
13
1C
0I!
0H!
1G!
0n!
1o!
1p!
1D
0J
1K
0L
1G
0M
1N
0K!
1O
1M
0N
0K
1I
0}
0O
#790000
0!
03
0C
#795000
1!
13
1C
0G!
0~
1O!
1n!
0G
0M
1}
1K!
0I
0}
#800000
0!
03
0C
#805000
1!
13
1C
1I!
0p!
0D
1J
1K
#810000
0!
03
0C
#815000
1!
13
1C
0I!
1H!
0o!
1p!
1D
0J
0K
1L
1M
1K
0L
0M
#820000
0!
03
0C
#825000
1!
13
1C
1I!
0p!
0D
1J
0K
1L
1M
#830000
0!
03
0C
#835000
1!
13
1C
0I!
0H!
1G!
0n!
1o!
1p!
1D
0J
1K
0L
1G
0M
1N
0K!
1O
1M
0N
0K
1I
1}
0O
#840000
0!
03
0C
#845000
1!
13
1C
0G!
1~
0O!
1n!
1"!
0)!
0G
0M
0}
1V!
0U!
1K!
1,!
0.!
0I
1}
0@
1>
07
19
1&
0$
#850000
0!
03
0C
#855000
1!
13
1C
1I!
0p!
0D
1J
1K
#860000
0!
03
0C
#865000
1!
13
1C
0I!
1H!
0o!
1p!
1D
0J
0K
1L
1M
1K
0L
0M
#870000
0!
03
0C
#875000
1!
13
1C
1I!
0p!
0D
1J
0K
1L
1M
#880000
0!
03
0C
#885000
1!
13
1C
0I!
0H!
1G!
0n!
1o!
1p!
1D
0J
1K
0L
1G
0M
1N
0K!
1O
1M
0N
0K
1I
0}
0O
#890000
0!
03
0C
#895000
1!
13
1C
0G!
0~
1O!
1n!
0G
0M
1}
1K!
0I
0}
#900000
0!
03
0C
#905000
1!
13
1C
1I!
0p!
0D
1J
1K
#910000
0!
03
0C
#915000
1!
13
1C
0I!
1H!
0o!
1p!
1D
0J
0K
1L
1M
1K
0L
0M
#920000
0!
03
0C
#925000
1!
13
1C
1I!
0p!
0D
1J
0K
1L
1M
#930000
0!
03
0C
#935000
1!
13
1C
0I!
0H!
1G!
0n!
1o!
1p!
1D
0J
1K
0L
1G
0M
1N
0K!
1O
1M
0N
0K
1I
1}
0O
#940000
0!
03
0C
#945000
1!
13
1C
0G!
1~
0O!
1n!
0"!
1#!
0G
0M
0}
0T!
1U!
1K!
0+!
0-!
0I
1}
1P!
0=
1?
1B
0:
18
15
0'
1%
1"
#950000
0!
03
0C
#955000
1!
13
1C
1I!
0p!
0D
1J
1K
#960000
0!
03
0C
#965000
1!
13
1C
0I!
1H!
0o!
1p!
1D
0J
0K
1L
1M
1K
0L
0M
#970000
0!
03
0C
#975000
1!
13
1C
1I!
0p!
0D
1J
0K
1L
1M
#980000
0!
03
0C
#985000
1!
13
1C
0I!
0H!
1G!
0n!
1o!
1p!
1D
0J
1K
0L
1G
0M
1N
0K!
1O
1M
0N
0K
1I
0}
0O
#990000
0!
03
0C
#995000
1!
13
1C
0G!
0~
1O!
1n!
0G
0M
1}
1K!
0I
0}
