stepper_motor_state_machine/simulation/qsim/stepper_motor_state_machine.msim.vcd
$comment
	File created using the following command:
		vcd file stepper_motor_state_machine.msim.vcd -direction
$end
$date
	Tue Oct 10 20:19:54 2023
$end
$version
	ModelSim Version 10.5b
$end
$timescale
	1ps
$end

$scope module stepper_motor_state_machine_vhd_vec_tst $end
$var wire 1 ! A $end
$var wire 1 " B $end
$var wire 1 # C $end
$var wire 1 $ clk $end
$var wire 1 % D $end
$var wire 1 & dir $end
$var wire 1 ' rst $end

$scope module i1 $end
$var wire 1 ( gnd $end
$var wire 1 ) vcc $end
$var wire 1 * unknown $end
$var wire 1 + devoe $end
$var wire 1 , devclrn $end
$var wire 1 - devpor $end
$var wire 1 . ww_devoe $end
$var wire 1 / ww_devclrn $end
$var wire 1 0 ww_devpor $end
$var wire 1 1 ww_clk $end
$var wire 1 2 ww_rst $end
$var wire 1 3 ww_dir $end
$var wire 1 4 ww_A $end
$var wire 1 5 ww_B $end
$var wire 1 6 ww_C $end
$var wire 1 7 ww_D $end
$var wire 1 8 \A~output_o\ $end
$var wire 1 9 \B~output_o\ $end
$var wire 1 : \C~output_o\ $end
$var wire 1 ; \D~output_o\ $end
$var wire 1 < \clk~input_o\ $end
$var wire 1 = \dir~input_o\ $end
$var wire 1 > \Selector3~0_combout\ $end
$var wire 1 ? \rst~input_o\ $end
$var wire 1 @ \current_state.sD~q\ $end
$var wire 1 A \Selector2~0_combout\ $end
$var wire 1 B \current_state.sC~q\ $end
$var wire 1 C \Selector1~0_combout\ $end
$var wire 1 D \current_state.sB~q\ $end
$var wire 1 E \Selector0~0_combout\ $end
$var wire 1 F \current_state.sA~q\ $end
$var wire 1 G \ALT_INV_current_state.sD~q\ $end
$var wire 1 H \ALT_INV_current_state.sC~q\ $end
$var wire 1 I \ALT_INV_current_state.sB~q\ $end
$var wire 1 J \ALT_INV_current_state.sA~q\ $end
$var wire 1 K \ALT_INV_dir~input_o\ $end
$var wire 1 L \ALT_INV_rst~input_o\ $end
$upscope $end
$upscope $end
$enddefinitions $end
#0
$dumpvars
1!
0"
0#
0$
0%
1&
1'
0(
1)
x*
1+
1,
1-
1.
1/
10
01
12
13
14
05
06
07
18
09
0:
0;
0<
1=
1>
1?
0@
0A
0B
0C
0D
1E
0F
1G
1H
1I
1J
0K
0L
$end
#5000
1$
11
1<
#10000
0$
01
0<
#15000
1$
11
1<
#20000
0$
01
0<
#25000
1$
11
1<
#30000
0$
01
0<
#35000
1$
11
1<
#40000
0$
0'
01
02
0?
0<
1L
#45000
1$
11
1<
1@
1F
0J
0G
1A
0>
1;
08
17
04
1%
0!
#50000
0$
01
0<
#55000
1$
11
1<
0@
1B
0H
1G
0A
1C
1:
0;
16
07
1#
0%
#60000
0$
01
0<
#65000
1$
11
1<
0B
1D
0I
1H
0C
0E
19
0:
15
06
1"
0#
#70000
0$
01
0<
#75000
1$
11
1<
0D
0F
1J
1I
1E
1>
09
18
05
14
0"
1!
#80000
0$
1'
01
12
1?
0<
0L
#85000
1$
11
1<
#90000
0$
01
0<
#95000
1$
11
1<
#100000
0$
01
0<
#105000
1$
11
1<
#110000
0$
01
0<
#115000
1$
11
1<
#120000
0$
0'
01
02
0?
0<
1L
#125000
1$
11
1<
1@
1F
0J
0G
1A
0>
1;
08
17
04
1%
0!
#130000
0$
01
0<
#135000
1$
11
1<
0@
1B
0H
1G
0A
1C
1:
0;
16
07
1#
0%
#140000
0$
01
0<
#145000
1$
11
1<
0B
1D
0I
1H
0C
0E
19
0:
15
06
1"
0#
#150000
0$
01
0<
#155000
1$
11
1<
0D
0F
1J
1I
1E
1>
09
18
05
14
0"
1!
#160000
0$
1'
01
12
1?
0<
0L
#165000
1$
11
1<
#170000
0$
01
0<
#175000
1$
11
1<
#180000
0$
01
0<
#185000
1$
11
1<
#190000
0$
01
0<
#195000
1$
11
1<
#200000
0$
01
0<
#205000
1$
11
1<
#210000
0$
01
0<
#215000
1$
11
1<
#220000
0$
01
0<
#225000
1$
11
1<
#230000
0$
01
0<
#235000
1$
11
1<
#240000
0$
01
0<
#245000
1$
11
1<
#250000
0$
0&
01
03
0=
0<
1K
0>
1C
#255000
1$
11
1<
#260000
0$
01
0<
#265000
1$
11
1<
#270000
0$
01
0<
#275000
1$
11
1<
#280000
0$
01
0<
#285000
1$
11
1<
#290000
0$
01
0<
#295000
1$
11
1<
#300000
0$
01
0<
#305000
1$
11
1<
#310000
0$
01
0<
#315000
1$
11
1<
#320000
0$
01
0<
#325000
1$
11
1<
#330000
0$
01
0<
#335000
1$
11
1<
#340000
0$
01
0<
#345000
1$
11
1<
#350000
0$
01
0<
#355000
1$
11
1<
#360000
0$
0'
01
02
0?
0<
1L
#365000
1$
11
1<
1D
1F
0J
0I
1A
0C
19
08
15
04
1"
0!
#370000
0$
01
0<
#375000
1$
11
1<
1B
0D
1I
0H
1>
0A
09
1:
05
16
0"
1#
#380000
0$
01
0<
#385000
1$
11
1<
1@
0B
1H
0G
0E
0>
0:
1;
06
17
0#
1%
#390000
0$
01
0<
#395000
1$
11
1<
0@
0F
1J
1G
1E
1C
0;
18
07
14
0%
1!
#400000
0$
01
0<
#405000
1$
11
1<
1D
1F
0J
0I
1A
0C
19
08
15
04
1"
0!
#410000
0$
01
0<
#415000
1$
11
1<
1B
0D
1I
0H
1>
0A
09
1:
05
16
0"
1#
#420000
0$
01
0<
#425000
1$
11
1<
1@
0B
1H
0G
0E
0>
0:
1;
06
17
0#
1%
#430000
0$
01
0<
#435000
1$
11
1<
0@
0F
1J
1G
1E
1C
0;
18
07
14
0%
1!
#440000
0$
1'
01
12
1?
0<
0L
#445000
1$
11
1<
#450000
0$
1&
01
13
1=
0<
0K
1>
0C
#455000
1$
11
1<
#460000
0$
01
0<
#465000
1$
11
1<
#470000
0$
01
0<
#475000
1$
11
1<
#480000
0$
0'
01
02
0?
0<
1L
#485000
1$
11
1<
1@
1F
0J
0G
1A
0>
1;
08
17
04
1%
0!
#490000
0$
01
0<
#495000
1$
11
1<
0@
1B
0H
1G
0A
1C
1:
0;
16
07
1#
0%
#500000
0$
0&
01
03
0=
0<
1K
1>
0C
#505000
1$
11
1<
1@
0B
1H
0G
0E
0>
0:
1;
06
17
0#
1%
#510000
0$
01
0<
#515000
1$
11
1<
0@
0F
1J
1G
1E
1C
0;
18
07
14
0%
1!
#520000
0$
01
0<
#525000
1$
11
1<
1D
1F
0J
0I
1A
0C
19
08
15
04
1"
0!
#530000
0$
01
0<
#535000
1$
11
1<
1B
0D
1I
0H
1>
0A
09
1:
05
16
0"
1#
#540000
0$
01
0<
#545000
1$
11
1<
1@
0B
1H
0G
0E
0>
0:
1;
06
17
0#
1%
#550000
0$
01
0<
#555000
1$
11
1<
0@
0F
1J
1G
1E
1C
0;
18
07
14
0%
1!
#560000
0$
01
0<
#565000
1$
11
1<
1D
1F
0J
0I
1A
0C
19
08
15
04
1"
0!
#570000
0$
01
0<
#575000
1$
11
1<
1B
0D
1I
0H
1>
0A
09
1:
05
16
0"
1#
#580000
0$
01
0<
#585000
1$
11
1<
1@
0B
1H
0G
0E
0>
0:
1;
06
17
0#
1%
#590000
0$
01
0<
#595000
1$
11
1<
0@
0F
1J
1G
1E
1C
0;
18
07
14
0%
1!
#600000
0$
1&
1'
01
13
12
1?
1=
0<
0K
0L
1>
0C
#605000
1$
11
1<
#610000
0$
01
0<
#615000
1$
11
1<
#620000
0$
01
0<
#625000
1$
11
1<
#630000
0$
01
0<
#635000
1$
11
1<
#640000
0$
01
0<
#645000
1$
11
1<
#650000
0$
01
0<
#655000
1$
11
1<
#660000
0$
01
0<
#665000
1$
11
1<
#670000
0$
01
0<
#675000
1$
11
1<
#680000
0$
01
0<
#685000
1$
11
1<
#690000
0$
01
0<
#695000
1$
11
1<
#700000
0$
0&
01
03
0=
0<
1K
0>
1C
#705000
1$
11
1<
#710000
0$
01
0<
#715000
1$
11
1<
#720000
0$
01
0<
#725000
1$
11
1<
#730000
0$
01
0<
#735000
1$
11
1<
#740000
0$
01
0<
#745000
1$
11
1<
#750000
0$
01
0<
#755000
1$
11
1<
#760000
0$
01
0<
#765000
1$
11
1<
#770000
0$
01
0<
#775000
1$
11
1<
#780000
0$
01
0<
#785000
1$
11
1<
#790000
0$
01
0<
#795000
1$
11
1<
#800000
0$
01
0<
#805000
1$
11
1<
#810000
0$
01
0<
#815000
1$
11
1<
#820000
0$
01
0<
#825000
1$
11
1<
#830000
0$
01
0<
#835000
1$
11
1<
#840000
0$
0'
01
02
0?
0<
1L
#845000
1$
11
1<
1D
1F
0J
0I
1A
0C
19
08
15
04
1"
0!
#850000
0$
01
0<
#855000
1$
11
1<
1B
0D
1I
0H
1>
0A
09
1:
05
16
0"
1#
#860000
0$
01
0<
#865000
1$
11
1<
1@
0B
1H
0G
0E
0>
0:
1;
06
17
0#
1%
#870000
0$
01
0<
#875000
1$
11
1<
0@
0F
1J
1G
1E
1C
0;
18
07
14
0%
1!
#880000
0$
01
0<
#885000
1$
11
1<
1D
1F
0J
0I
1A
0C
19
08
15
04
1"
0!
#890000
0$
01
0<
#895000
1$
11
1<
1B
0D
1I
0H
1>
0A
09
1:
05
16
0"
1#
#900000
0$
01
0<
#905000
1$
11
1<
1@
0B
1H
0G
0E
0>
0:
1;
06
17
0#
1%
#910000
0$
01
0<
#915000
1$
11
1<
0@
0F
1J
1G
1E
1C
0;
18
07
14
0%
1!
#920000
0$
01
0<
#925000
1$
11
1<
1D
1F
0J
0I
1A
0C
19
08
15
04
1"
0!
#930000
0$
01
0<
#935000
1$
11
1<
1B
0D
1I
0H
1>
0A
09
1:
05
16
0"
1#
#940000
0$
01
0<
#945000
1$
11
1<
1@
0B
1H
0G
0E
0>
0:
1;
06
17
0#
1%
#950000
0$
01
0<
#955000
1$
11
1<
0@
0F
1J
1G
1E
1C
0;
18
07
14
0%
1!
#960000
0$
1'
01
12
1?
0<
0L
#965000
1$
11
1<
#970000
0$
01
0<
#975000
1$
11
1<
#980000
0$
01
0<
#985000
1$
11
1<
#990000
0$
01
0<
#995000
1$
11
1<
