stepper_motor_state_machine/simulation/qsim/stepper_motor_state_machine.msim.vcd
$comment
	File created using the following command:
		vcd file stepper_motor_state_machine.msim.vcd -direction
$end
$date
	Tue Oct 24 21:27:28 2023
$end
$version
	ModelSim Version 10.5b
$end
$timescale
	1ps
$end

$scope module stepper_motor_state_machine_vhd_vec_tst $end
$var wire 1 ! A $end
$var wire 1 " B $end
$var wire 1 # C $end
$var wire 1 $ clk $end
$var wire 1 % D $end
$var wire 1 & dir_btn $end
$var wire 1 ' rst $end

$scope module i1 $end
$var wire 1 ( gnd $end
$var wire 1 ) vcc $end
$var wire 1 * unknown $end
$var wire 1 + devoe $end
$var wire 1 , devclrn $end
$var wire 1 - devpor $end
$var wire 1 . ww_devoe $end
$var wire 1 / ww_devclrn $end
$var wire 1 0 ww_devpor $end
$var wire 1 1 ww_clk $end
$var wire 1 2 ww_rst $end
$var wire 1 3 ww_dir_btn $end
$var wire 1 4 ww_A $end
$var wire 1 5 ww_B $end
$var wire 1 6 ww_C $end
$var wire 1 7 ww_D $end
$var wire 1 8 \A~output_o\ $end
$var wire 1 9 \B~output_o\ $end
$var wire 1 : \C~output_o\ $end
$var wire 1 ; \D~output_o\ $end
$var wire 1 < \clk~input_o\ $end
$var wire 1 = \f1|Add0~57_sumout\ $end
$var wire 1 > \f1|Equal0~1_combout\ $end
$var wire 1 ? \f1|Equal0~2_combout\ $end
$var wire 1 @ \f1|Equal0~3_combout\ $end
$var wire 1 A \f1|Equal0~4_combout\ $end
$var wire 1 B \f1|Equal0~5_combout\ $end
$var wire 1 C \f1|Add0~58\ $end
$var wire 1 D \f1|Add0~61_sumout\ $end
$var wire 1 E \f1|Add0~62\ $end
$var wire 1 F \f1|Add0~65_sumout\ $end
$var wire 1 G \f1|Add0~66\ $end
$var wire 1 H \f1|Add0~69_sumout\ $end
$var wire 1 I \f1|Add0~70\ $end
$var wire 1 J \f1|Add0~73_sumout\ $end
$var wire 1 K \f1|Add0~74\ $end
$var wire 1 L \f1|Add0~77_sumout\ $end
$var wire 1 M \f1|Add0~78\ $end
$var wire 1 N \f1|Add0~81_sumout\ $end
$var wire 1 O \f1|Add0~82\ $end
$var wire 1 P \f1|Add0~85_sumout\ $end
$var wire 1 Q \f1|Add0~86\ $end
$var wire 1 R \f1|Add0~89_sumout\ $end
$var wire 1 S \f1|Add0~90\ $end
$var wire 1 T \f1|Add0~93_sumout\ $end
$var wire 1 U \f1|Add0~94\ $end
$var wire 1 V \f1|Add0~97_sumout\ $end
$var wire 1 W \f1|Add0~98\ $end
$var wire 1 X \f1|Add0~101_sumout\ $end
$var wire 1 Y \f1|Add0~102\ $end
$var wire 1 Z \f1|Add0~33_sumout\ $end
$var wire 1 [ \f1|Add0~34\ $end
$var wire 1 \ \f1|Add0~37_sumout\ $end
$var wire 1 ] \f1|Add0~38\ $end
$var wire 1 ^ \f1|Add0~41_sumout\ $end
$var wire 1 _ \f1|Add0~42\ $end
$var wire 1 ` \f1|Add0~45_sumout\ $end
$var wire 1 a \f1|Add0~46\ $end
$var wire 1 b \f1|Add0~49_sumout\ $end
$var wire 1 c \f1|Add0~50\ $end
$var wire 1 d \f1|Add0~53_sumout\ $end
$var wire 1 e \f1|Add0~54\ $end
$var wire 1 f \f1|Add0~9_sumout\ $end
$var wire 1 g \f1|Add0~10\ $end
$var wire 1 h \f1|Add0~13_sumout\ $end
$var wire 1 i \f1|Add0~14\ $end
$var wire 1 j \f1|Add0~17_sumout\ $end
$var wire 1 k \f1|Add0~18\ $end
$var wire 1 l \f1|Add0~21_sumout\ $end
$var wire 1 m \f1|Add0~22\ $end
$var wire 1 n \f1|Add0~25_sumout\ $end
$var wire 1 o \f1|Add0~26\ $end
$var wire 1 p \f1|Add0~29_sumout\ $end
$var wire 1 q \f1|Add0~30\ $end
$var wire 1 r \f1|Add0~1_sumout\ $end
$var wire 1 s \f1|Add0~2\ $end
$var wire 1 t \f1|Add0~5_sumout\ $end
$var wire 1 u \f1|Equal0~0_combout\ $end
$var wire 1 v \f1|local_out~0_combout\ $end
$var wire 1 w \f1|local_out~q\ $end
$var wire 1 x \dir_btn~input_o\ $end
$var wire 1 y \dir~0_combout\ $end
$var wire 1 z \dir~q\ $end
$var wire 1 { \Selector3~0_combout\ $end
$var wire 1 | \rst~input_o\ $end
$var wire 1 } \current_state.sD~q\ $end
$var wire 1 ~ \Selector2~0_combout\ $end
$var wire 1 !! \current_state.sC~q\ $end
$var wire 1 "! \Selector1~0_combout\ $end
$var wire 1 #! \current_state.sB~q\ $end
$var wire 1 $! \Selector0~0_combout\ $end
$var wire 1 %! \current_state.sA~q\ $end
$var wire 1 &! \f1|iterations\ [25] $end
$var wire 1 '! \f1|iterations\ [24] $end
$var wire 1 (! \f1|iterations\ [23] $end
$var wire 1 )! \f1|iterations\ [22] $end
$var wire 1 *! \f1|iterations\ [21] $end
$var wire 1 +! \f1|iterations\ [20] $end
$var wire 1 ,! \f1|iterations\ [19] $end
$var wire 1 -! \f1|iterations\ [18] $end
$var wire 1 .! \f1|iterations\ [17] $end
$var wire 1 /! \f1|iterations\ [16] $end
$var wire 1 0! \f1|iterations\ [15] $end
$var wire 1 1! \f1|iterations\ [14] $end
$var wire 1 2! \f1|iterations\ [13] $end
$var wire 1 3! \f1|iterations\ [12] $end
$var wire 1 4! \f1|iterations\ [11] $end
$var wire 1 5! \f1|iterations\ [10] $end
$var wire 1 6! \f1|iterations\ [9] $end
$var wire 1 7! \f1|iterations\ [8] $end
$var wire 1 8! \f1|iterations\ [7] $end
$var wire 1 9! \f1|iterations\ [6] $end
$var wire 1 :! \f1|iterations\ [5] $end
$var wire 1 ;! \f1|iterations\ [4] $end
$var wire 1 <! \f1|iterations\ [3] $end
$var wire 1 =! \f1|iterations\ [2] $end
$var wire 1 >! \f1|iterations\ [1] $end
$var wire 1 ?! \f1|iterations\ [0] $end
$var wire 1 @! \f1|ALT_INV_Equal0~4_combout\ $end
$var wire 1 A! \f1|ALT_INV_Equal0~3_combout\ $end
$var wire 1 B! \f1|ALT_INV_Equal0~2_combout\ $end
$var wire 1 C! \f1|ALT_INV_Equal0~1_combout\ $end
$var wire 1 D! \f1|ALT_INV_Equal0~0_combout\ $end
$var wire 1 E! \f1|ALT_INV_local_out~q\ $end
$var wire 1 F! \ALT_INV_dir~q\ $end
$var wire 1 G! \ALT_INV_current_state.sD~q\ $end
$var wire 1 H! \ALT_INV_current_state.sC~q\ $end
$var wire 1 I! \ALT_INV_current_state.sB~q\ $end
$var wire 1 J! \ALT_INV_current_state.sA~q\ $end
$var wire 1 K! \f1|ALT_INV_iterations\ [25] $end
$var wire 1 L! \f1|ALT_INV_iterations\ [24] $end
$var wire 1 M! \f1|ALT_INV_iterations\ [23] $end
$var wire 1 N! \f1|ALT_INV_iterations\ [22] $end
$var wire 1 O! \f1|ALT_INV_iterations\ [21] $end
$var wire 1 P! \f1|ALT_INV_iterations\ [20] $end
$var wire 1 Q! \f1|ALT_INV_iterations\ [19] $end
$var wire 1 R! \f1|ALT_INV_iterations\ [18] $end
$var wire 1 S! \f1|ALT_INV_iterations\ [17] $end
$var wire 1 T! \f1|ALT_INV_iterations\ [16] $end
$var wire 1 U! \f1|ALT_INV_iterations\ [15] $end
$var wire 1 V! \f1|ALT_INV_iterations\ [14] $end
$var wire 1 W! \f1|ALT_INV_iterations\ [13] $end
$var wire 1 X! \f1|ALT_INV_iterations\ [12] $end
$var wire 1 Y! \f1|ALT_INV_iterations\ [11] $end
$var wire 1 Z! \f1|ALT_INV_iterations\ [10] $end
$var wire 1 [! \f1|ALT_INV_iterations\ [9] $end
$var wire 1 \! \f1|ALT_INV_iterations\ [8] $end
$var wire 1 ]! \f1|ALT_INV_iterations\ [7] $end
$var wire 1 ^! \f1|ALT_INV_iterations\ [6] $end
$var wire 1 _! \f1|ALT_INV_iterations\ [5] $end
$var wire 1 `! \f1|ALT_INV_iterations\ [4] $end
$var wire 1 a! \f1|ALT_INV_iterations\ [3] $end
$var wire 1 b! \f1|ALT_INV_iterations\ [2] $end
$var wire 1 c! \f1|ALT_INV_iterations\ [1] $end
$var wire 1 d! \f1|ALT_INV_iterations\ [0] $end
$upscope $end
$upscope $end
$enddefinitions $end
#0
$dumpvars
0!
1"
1#
0$
1%
1&
1'
0(
1)
x*
1+
1,
1-
1.
1/
10
01
12
13
04
15
16
17
08
19
1:
1;
0<
1=
1>
1?
0@
1A
0B
0C
0D
0E
0F
0G
0H
0I
0J
0K
0L
0M
0N
0O
0P
0Q
0R
0S
0T
0U
0V
0W
0X
0Y
0Z
0[
0\
0]
0^
0_
0`
0a
0b
0c
0d
0e
0f
0g
0h
0i
0j
0k
0l
0m
0n
0o
0p
0q
0r
0s
0t
1u
0v
0w
1x
1y
0z
1{
1|
0}
0~
0!!
0"!
0#!
1$!
0%!
0@!
1A!
0B!
0C!
0D!
1E!
1F!
1G!
1H!
1I!
1J!
0&!
0'!
0(!
0)!
0*!
0+!
0,!
0-!
0.!
0/!
00!
01!
02!
03!
04!
05!
06!
07!
08!
09!
0:!
0;!
0<!
0=!
0>!
0?!
1K!
1L!
1M!
1N!
1O!
1P!
1Q!
1R!
1S!
1T!
1U!
1V!
1W!
1X!
1Y!
1Z!
1[!
1\!
1]!
1^!
1_!
1`!
1a!
1b!
1c!
1d!
$end
#5000
1$
11
1<
1?!
0d!
0=
1C
1D
#10000
0$
01
0<
#15000
1$
11
1<
0?!
1>!
0c!
1d!
1=
0C
0D
1E
1F
1D
0E
0F
#20000
0$
01
0<
#25000
1$
11
1<
1?!
0d!
0=
1C
0D
1E
1F
#30000
0$
01
0<
#35000
1$
11
1<
0?!
0>!
1=!
0b!
1c!
1d!
1=
0C
1D
0E
1@
0F
1G
0A!
1H
1F
0G
0D
1B
1v
0H
#40000
0$
01
0<
#45000
1$
11
1<
0=!
1w
0E!
1b!
1}
1%!
0@
0F
0v
0J!
0G!
1A!
1~
0{
0B
1v
18
0;
14
07
1!
0%
#50000
0$
01
0<
#55000
1$
11
1<
1?!
0d!
0=
1C
1D
#60000
0$
01
0<
#65000
1$
11
1<
0?!
1>!
0c!
1d!
1=
0C
0D
1E
1F
1D
0E
0F
#70000
0$
01
0<
#75000
1$
11
1<
1?!
0d!
0=
1C
0D
1E
1F
#80000
0$
01
0<
#85000
1$
11
1<
0?!
0>!
1=!
0b!
1c!
1d!
1=
0C
1D
0E
1@
0F
1G
0A!
1H
1F
0G
0D
1B
0v
0H
#90000
0$
01
0<
#95000
1$
11
1<
0=!
0w
1E!
1b!
0@
0F
1v
1A!
0B
0v
#100000
0$
01
0<
#105000
1$
11
1<
1?!
0d!
0=
1C
1D
#110000
0$
01
0<
#115000
1$
11
1<
0?!
1>!
0c!
1d!
1=
0C
0D
1E
1F
1D
0E
0F
#120000
0$
01
0<
#125000
1$
11
1<
1?!
0d!
0=
1C
0D
1E
1F
#130000
0$
01
0<
#135000
1$
11
1<
0?!
0>!
1=!
0b!
1c!
1d!
1=
0C
1D
0E
1@
0F
1G
0A!
1H
1F
0G
0D
1B
1v
0H
#140000
0$
01
0<
#145000
1$
11
1<
0=!
1w
0E!
1b!
0}
1!!
0@
0F
0v
0H!
1G!
1A!
0~
1"!
0B
1v
1;
0:
17
06
1%
0#
#150000
0$
01
0<
#155000
1$
11
1<
1?!
0d!
0=
1C
1D
#160000
0$
01
0<
#165000
1$
11
1<
0?!
1>!
0c!
1d!
1=
0C
0D
1E
1F
1D
0E
0F
#170000
0$
01
0<
#175000
1$
11
1<
1?!
0d!
0=
1C
0D
1E
1F
#180000
0$
01
0<
#185000
1$
11
1<
0?!
0>!
1=!
0b!
1c!
1d!
1=
0C
1D
0E
1@
0F
1G
0A!
1H
1F
0G
0D
1B
0v
0H
#190000
0$
01
0<
#195000
1$
11
1<
0=!
0w
1E!
1b!
0@
0F
1v
1A!
0B
0v
#200000
0$
01
0<
#205000
1$
11
1<
1?!
0d!
0=
1C
1D
#210000
0$
01
0<
#215000
1$
11
1<
0?!
1>!
0c!
1d!
1=
0C
0D
1E
1F
1D
0E
0F
#220000
0$
01
0<
#225000
1$
11
1<
1?!
0d!
0=
1C
0D
1E
1F
#230000
0$
01
0<
#235000
1$
11
1<
0?!
0>!
1=!
0b!
1c!
1d!
1=
0C
1D
0E
1@
0F
1G
0A!
1H
1F
0G
0D
1B
1v
0H
#240000
0$
01
0<
#245000
1$
11
1<
0=!
1w
0E!
1b!
0!!
1#!
0@
0F
0v
0I!
1H!
1A!
0"!
0$!
0B
1v
1:
09
16
05
1#
0"
#250000
0$
01
0<
#255000
1$
11
1<
1?!
0d!
0=
1C
1D
#260000
0$
01
0<
#265000
1$
11
1<
0?!
1>!
0c!
1d!
1=
0C
0D
1E
1F
1D
0E
0F
#270000
0$
01
0<
#275000
1$
11
1<
1?!
0d!
0=
1C
0D
1E
1F
#280000
0$
01
0<
#285000
1$
11
1<
0?!
0>!
1=!
0b!
1c!
1d!
1=
0C
1D
0E
1@
0F
1G
0A!
1H
1F
0G
0D
1B
0v
0H
#290000
0$
01
0<
#295000
1$
11
1<
0=!
0w
1E!
1b!
0@
0F
1v
1A!
0B
0v
#300000
0$
01
0<
#305000
1$
11
1<
1?!
0d!
0=
1C
1D
#310000
0$
01
0<
#315000
1$
11
1<
0?!
1>!
0c!
1d!
1=
0C
0D
1E
1F
1D
0E
0F
#320000
0$
01
0<
#325000
1$
11
1<
1?!
0d!
0=
1C
0D
1E
1F
#330000
0$
01
0<
#335000
1$
11
1<
0?!
0>!
1=!
0b!
1c!
1d!
1=
0C
1D
0E
1@
0F
1G
0A!
1H
1F
0G
0D
1B
1v
0H
#340000
0$
01
0<
#345000
1$
11
1<
0=!
1w
0E!
1b!
0#!
0%!
0@
0F
0v
1J!
1I!
1A!
1$!
1{
0B
1v
08
19
04
15
0!
1"
#350000
0$
01
0<
#355000
1$
11
1<
1?!
0d!
0=
1C
1D
#360000
0$
01
0<
#365000
1$
11
1<
0?!
1>!
0c!
1d!
1=
0C
0D
1E
1F
1D
0E
0F
#370000
0$
01
0<
#375000
1$
11
1<
1?!
0d!
0=
1C
0D
1E
1F
#380000
0$
01
0<
#385000
1$
11
1<
0?!
0>!
1=!
0b!
1c!
1d!
1=
0C
1D
0E
1@
0F
1G
0A!
1H
1F
0G
0D
1B
0v
0H
#390000
0$
01
0<
#395000
1$
11
1<
0=!
0w
1E!
1b!
0@
0F
1v
1A!
0B
0v
#400000
0$
01
0<
#405000
1$
11
1<
1?!
0d!
0=
1C
1D
#410000
0$
01
0<
#415000
1$
11
1<
0?!
1>!
0c!
1d!
1=
0C
0D
1E
1F
1D
0E
0F
#420000
0$
01
0<
#425000
1$
11
1<
1?!
0d!
0=
1C
0D
1E
1F
#430000
0$
01
0<
#435000
1$
11
1<
0?!
0>!
1=!
0b!
1c!
1d!
1=
0C
1D
0E
1@
0F
1G
0A!
1H
1F
0G
0D
1B
1v
0H
#440000
0$
01
0<
#445000
1$
11
1<
0=!
1w
0E!
1b!
1}
1%!
0@
0F
0v
0J!
0G!
1A!
1~
0{
0B
1v
18
0;
14
07
1!
0%
#450000
0$
01
0<
#455000
1$
11
1<
1?!
0d!
0=
1C
1D
#460000
0$
01
0<
#465000
1$
11
1<
0?!
1>!
0c!
1d!
1=
0C
0D
1E
1F
1D
0E
0F
#470000
0$
01
0<
#475000
1$
11
1<
1?!
0d!
0=
1C
0D
1E
1F
#480000
0$
01
0<
#485000
1$
11
1<
0?!
0>!
1=!
0b!
1c!
1d!
1=
0C
1D
0E
1@
0F
1G
0A!
1H
1F
0G
0D
1B
0v
0H
#490000
0$
01
0<
#495000
1$
11
1<
0=!
0w
1E!
1b!
0@
0F
1v
1A!
0B
0v
#500000
0$
01
0<
#505000
1$
11
1<
1?!
0d!
0=
1C
1D
#510000
0$
01
0<
#515000
1$
11
1<
0?!
1>!
0c!
1d!
1=
0C
0D
1E
1F
1D
0E
0F
#520000
0$
01
0<
#525000
1$
11
1<
1?!
0d!
0=
1C
0D
1E
1F
#530000
0$
01
0<
#535000
1$
11
1<
0?!
0>!
1=!
0b!
1c!
1d!
1=
0C
1D
0E
1@
0F
1G
0A!
1H
1F
0G
0D
1B
1v
0H
#540000
0$
01
0<
#545000
1$
11
1<
0=!
1w
0E!
1b!
0}
1!!
0@
0F
0v
0H!
1G!
1A!
0~
1"!
0B
1v
1;
0:
17
06
1%
0#
#550000
0$
01
0<
#555000
1$
11
1<
1?!
0d!
0=
1C
1D
#560000
0$
01
0<
#565000
1$
11
1<
0?!
1>!
0c!
1d!
1=
0C
0D
1E
1F
1D
0E
0F
#570000
0$
01
0<
#575000
1$
11
1<
1?!
0d!
0=
1C
0D
1E
1F
#580000
0$
01
0<
#585000
1$
11
1<
0?!
0>!
1=!
0b!
1c!
1d!
1=
0C
1D
0E
1@
0F
1G
0A!
1H
1F
0G
0D
1B
0v
0H
#590000
0$
01
0<
#595000
1$
11
1<
0=!
0w
1E!
1b!
0@
0F
1v
1A!
0B
0v
#600000
0$
01
0<
#605000
1$
11
1<
1?!
0d!
0=
1C
1D
#610000
0$
01
0<
#615000
1$
11
1<
0?!
1>!
0c!
1d!
1=
0C
0D
1E
1F
1D
0E
0F
#620000
0$
01
0<
#625000
1$
11
1<
1?!
0d!
0=
1C
0D
1E
1F
#630000
0$
01
0<
#635000
1$
11
1<
0?!
0>!
1=!
0b!
1c!
1d!
1=
0C
1D
0E
1@
0F
1G
0A!
1H
1F
0G
0D
1B
1v
0H
#640000
0$
01
0<
#645000
1$
11
1<
0=!
1w
0E!
1b!
0!!
1#!
0@
0F
0v
0I!
1H!
1A!
0"!
0$!
0B
1v
1:
09
16
05
1#
0"
#650000
0$
01
0<
#655000
1$
11
1<
1?!
0d!
0=
1C
1D
#660000
0$
01
0<
#665000
1$
11
1<
0?!
1>!
0c!
1d!
1=
0C
0D
1E
1F
1D
0E
0F
#670000
0$
01
0<
#675000
1$
11
1<
1?!
0d!
0=
1C
0D
1E
1F
#680000
0$
01
0<
#685000
1$
11
1<
0?!
0>!
1=!
0b!
1c!
1d!
1=
0C
1D
0E
1@
0F
1G
0A!
1H
1F
0G
0D
1B
0v
0H
#690000
0$
01
0<
#695000
1$
11
1<
0=!
0w
1E!
1b!
0@
0F
1v
1A!
0B
0v
#700000
0$
01
0<
#705000
1$
11
1<
1?!
0d!
0=
1C
1D
#710000
0$
01
0<
#715000
1$
11
1<
0?!
1>!
0c!
1d!
1=
0C
0D
1E
1F
1D
0E
0F
#720000
0$
01
0<
#725000
1$
11
1<
1?!
0d!
0=
1C
0D
1E
1F
#730000
0$
01
0<
#735000
1$
11
1<
0?!
0>!
1=!
0b!
1c!
1d!
1=
0C
1D
0E
1@
0F
1G
0A!
1H
1F
0G
0D
1B
1v
0H
#740000
0$
01
0<
#745000
1$
11
1<
0=!
1w
0E!
1b!
0#!
0%!
0@
0F
0v
1J!
1I!
1A!
1$!
1{
0B
1v
08
19
04
15
0!
1"
#750000
0$
01
0<
#755000
1$
11
1<
1?!
0d!
0=
1C
1D
#760000
0$
01
0<
#765000
1$
11
1<
0?!
1>!
0c!
1d!
1=
0C
0D
1E
1F
1D
0E
0F
#770000
0$
01
0<
#775000
1$
11
1<
1?!
0d!
0=
1C
0D
1E
1F
#780000
0$
01
0<
#785000
1$
11
1<
0?!
0>!
1=!
0b!
1c!
1d!
1=
0C
1D
0E
1@
0F
1G
0A!
1H
1F
0G
0D
1B
0v
0H
#790000
0$
01
0<
#795000
1$
11
1<
0=!
0w
1E!
1b!
0@
0F
1v
1A!
0B
0v
#800000
0$
01
0<
#805000
1$
11
1<
1?!
0d!
0=
1C
1D
#810000
0$
01
0<
#815000
1$
11
1<
0?!
1>!
0c!
1d!
1=
0C
0D
1E
1F
1D
0E
0F
#820000
0$
01
0<
#825000
1$
11
1<
1?!
0d!
0=
1C
0D
1E
1F
#830000
0$
01
0<
#835000
1$
11
1<
0?!
0>!
1=!
0b!
1c!
1d!
1=
0C
1D
0E
1@
0F
1G
0A!
1H
1F
0G
0D
1B
1v
0H
#840000
0$
01
0<
#845000
1$
11
1<
0=!
1w
0E!
1b!
1}
1%!
0@
0F
0v
0J!
0G!
1A!
1~
0{
0B
1v
18
0;
14
07
1!
0%
#850000
0$
01
0<
#855000
1$
11
1<
1?!
0d!
0=
1C
1D
#860000
0$
01
0<
#865000
1$
11
1<
0?!
1>!
0c!
1d!
1=
0C
0D
1E
1F
1D
0E
0F
#870000
0$
01
0<
#875000
1$
11
1<
1?!
0d!
0=
1C
0D
1E
1F
#880000
0$
01
0<
#885000
1$
11
1<
0?!
0>!
1=!
0b!
1c!
1d!
1=
0C
1D
0E
1@
0F
1G
0A!
1H
1F
0G
0D
1B
0v
0H
#890000
0$
01
0<
#895000
1$
11
1<
0=!
0w
1E!
1b!
0@
0F
1v
1A!
0B
0v
#900000
0$
01
0<
#905000
1$
11
1<
1?!
0d!
0=
1C
1D
#910000
0$
01
0<
#915000
1$
11
1<
0?!
1>!
0c!
1d!
1=
0C
0D
1E
1F
1D
0E
0F
#920000
0$
01
0<
#925000
1$
11
1<
1?!
0d!
0=
1C
0D
1E
1F
#930000
0$
01
0<
#935000
1$
11
1<
0?!
0>!
1=!
0b!
1c!
1d!
1=
0C
1D
0E
1@
0F
1G
0A!
1H
1F
0G
0D
1B
1v
0H
#940000
0$
01
0<
#945000
1$
11
1<
0=!
1w
0E!
1b!
0}
1!!
0@
0F
0v
0H!
1G!
1A!
0~
1"!
0B
1v
1;
0:
17
06
1%
0#
#950000
0$
01
0<
#955000
1$
11
1<
1?!
0d!
0=
1C
1D
#960000
0$
01
0<
#965000
1$
11
1<
0?!
1>!
0c!
1d!
1=
0C
0D
1E
1F
1D
0E
0F
#970000
0$
01
0<
#975000
1$
11
1<
1?!
0d!
0=
1C
0D
1E
1F
#980000
0$
01
0<
#985000
1$
11
1<
0?!
0>!
1=!
0b!
1c!
1d!
1=
0C
1D
0E
1@
0F
1G
0A!
1H
1F
0G
0D
1B
0v
0H
#990000
0$
01
0<
#995000
1$
11
1<
0=!
0w
1E!
1b!
0@
0F
1v
1A!
0B
0v
