stepper_motor_state_machine/simulation/qsim/stepper_motor_state_machine.msim.vcd
$comment
	File created using the following command:
		vcd file stepper_motor_state_machine.msim.vcd -direction
$end
$date
	Tue Oct 17 20:49:36 2023
$end
$version
	ModelSim Version 10.5b
$end
$timescale
	1ps
$end

$scope module stepper_motor_state_machine_vhd_vec_tst $end
$var wire 1 ! A $end
$var wire 1 " B $end
$var wire 1 # C $end
$var wire 1 $ clk $end
$var wire 1 % D $end
$var wire 1 & dir_btn $end
$var wire 1 ' rst $end

$scope module i1 $end
$var wire 1 ( gnd $end
$var wire 1 ) vcc $end
$var wire 1 * unknown $end
$var wire 1 + devoe $end
$var wire 1 , devclrn $end
$var wire 1 - devpor $end
$var wire 1 . ww_devoe $end
$var wire 1 / ww_devclrn $end
$var wire 1 0 ww_devpor $end
$var wire 1 1 ww_clk $end
$var wire 1 2 ww_rst $end
$var wire 1 3 ww_dir_btn $end
$var wire 1 4 ww_A $end
$var wire 1 5 ww_B $end
$var wire 1 6 ww_C $end
$var wire 1 7 ww_D $end
$var wire 1 8 \A~output_o\ $end
$var wire 1 9 \B~output_o\ $end
$var wire 1 : \C~output_o\ $end
$var wire 1 ; \D~output_o\ $end
$var wire 1 < \clk~input_o\ $end
$var wire 1 = \dir_btn~input_o\ $end
$var wire 1 > \dir~0_combout\ $end
$var wire 1 ? \dir~q\ $end
$var wire 1 @ \Selector0~0_combout\ $end
$var wire 1 A \rst~input_o\ $end
$var wire 1 B \current_state.sOff~q\ $end
$var wire 1 C \next_state.sD_89~combout\ $end
$var wire 1 D \current_state.sD~q\ $end
$var wire 1 E \Selector1~0_combout\ $end
$var wire 1 F \next_state.sC_97~combout\ $end
$var wire 1 G \current_state.sC~q\ $end
$var wire 1 H \Selector3~0_combout\ $end
$var wire 1 I \next_state.sB_105~combout\ $end
$var wire 1 J \current_state.sB~q\ $end
$var wire 1 K \Selector5~0_combout\ $end
$var wire 1 L \next_state.sA_113~combout\ $end
$var wire 1 M \current_state.sA~q\ $end
$var wire 1 N \ALT_INV_current_state.sB~q\ $end
$var wire 1 O \ALT_INV_current_state.sC~q\ $end
$var wire 1 P \ALT_INV_current_state.sD~q\ $end
$var wire 1 Q \ALT_INV_Selector5~0_combout\ $end
$var wire 1 R \ALT_INV_dir~q\ $end
$var wire 1 S \ALT_INV_current_state.sOff~q\ $end
$var wire 1 T \ALT_INV_Selector3~0_combout\ $end
$var wire 1 U \ALT_INV_Selector1~0_combout\ $end
$var wire 1 V \ALT_INV_Selector0~0_combout\ $end
$var wire 1 W \ALT_INV_next_state.sA_113~combout\ $end
$var wire 1 X \ALT_INV_next_state.sB_105~combout\ $end
$var wire 1 Y \ALT_INV_next_state.sC_97~combout\ $end
$var wire 1 Z \ALT_INV_next_state.sD_89~combout\ $end
$var wire 1 [ \ALT_INV_rst~input_o\ $end
$upscope $end
$upscope $end
$enddefinitions $end
#0
$dumpvars
0!
0"
0#
0$
0%
0&
0'
0(
1)
x*
1+
1,
1-
1.
1/
10
01
02
03
04
05
06
07
08
09
0:
0;
0<
0=
1>
0?
0@
0A
0B
xC
0D
1E
xF
0G
0H
xI
0J
1K
xL
0M
1N
1O
1P
0Q
1R
1S
1T
0U
1V
xW
xX
xY
xZ
1[
$end
#5000
1$
11
1<
1B
xD
xG
xJ
xM
xN
xO
xP
0S
0C
0F
1I
0L
x@
xE
xH
xK
xQ
xT
xU
xV
1W
0X
1Y
1Z
x8
x9
x:
x;
xC
xF
xI
xL
x4
x5
x6
x7
xW
xX
xY
xZ
x!
x"
x#
x%
#10000
0$
01
0<
#15000
1$
11
1<
#20000
0$
01
0<
#25000
1$
11
1<
#30000
0$
01
0<
#35000
1$
11
1<
#40000
0$
01
0<
#45000
1$
11
1<
#50000
0$
01
0<
#55000
1$
11
1<
#60000
0$
01
0<
#65000
1$
11
1<
#70000
0$
01
0<
#75000
1$
11
1<
#80000
0$
01
0<
#85000
1$
11
1<
#90000
0$
01
0<
#95000
1$
11
1<
#100000
0$
01
0<
#105000
1$
11
1<
#110000
0$
01
0<
#115000
1$
11
1<
#120000
0$
01
0<
#125000
1$
11
1<
#130000
0$
01
0<
#135000
1$
11
1<
#140000
0$
01
0<
#145000
1$
11
1<
#150000
0$
01
0<
#155000
1$
11
1<
#160000
0$
01
0<
#165000
1$
11
1<
#170000
0$
01
0<
#175000
1$
11
1<
#180000
0$
1&
01
13
1=
0<
1?
0R
0>
#185000
1$
11
1<
#190000
0$
01
0<
#195000
1$
11
1<
#200000
0$
01
0<
#205000
1$
11
1<
#210000
0$
01
0<
#215000
1$
11
1<
#220000
0$
01
0<
#225000
1$
11
1<
#230000
0$
01
0<
#235000
1$
11
1<
#240000
0$
01
0<
#245000
1$
11
1<
#250000
0$
01
0<
#255000
1$
11
1<
#260000
0$
01
0<
#265000
1$
11
1<
#270000
0$
01
0<
#275000
1$
11
1<
#280000
0$
01
0<
#285000
1$
11
1<
#290000
0$
01
0<
#295000
1$
11
1<
#300000
0$
01
0<
#305000
1$
11
1<
#310000
0$
01
0<
#315000
1$
11
1<
#320000
0$
01
0<
#325000
1$
11
1<
#330000
0$
01
0<
#335000
1$
11
1<
#340000
0$
0&
01
03
0=
0<
#345000
1$
11
1<
#350000
0$
01
0<
#355000
1$
11
1<
#360000
0$
01
0<
#365000
1$
11
1<
#370000
0$
01
0<
#375000
1$
11
1<
#380000
0$
01
0<
#385000
1$
11
1<
#390000
0$
01
0<
#395000
1$
11
1<
#400000
0$
01
0<
#405000
1$
11
1<
#410000
0$
01
0<
#415000
1$
11
1<
#420000
0$
01
0<
#425000
1$
11
1<
#430000
0$
01
0<
#435000
1$
11
1<
#440000
0$
01
0<
#445000
1$
11
1<
#450000
0$
1'
01
12
1A
0<
0[
0B
0D
0G
0J
0M
1N
1O
1P
1S
1@
1E
1H
1K
0Q
0T
0U
0V
08
09
0:
0;
04
05
06
07
0!
0"
0#
0%
#455000
1$
11
1<
#460000
0$
01
0<
#465000
1$
11
1<
#470000
0$
01
0<
#475000
1$
11
1<
#480000
0$
01
0<
#485000
1$
11
1<
#490000
0$
01
0<
#495000
1$
11
1<
#500000
0$
01
0<
#505000
1$
11
1<
#510000
0$
01
0<
#515000
1$
11
1<
#520000
0$
01
0<
#525000
1$
11
1<
#530000
0$
01
0<
#535000
1$
11
1<
#540000
0$
01
0<
#545000
1$
11
1<
#550000
0$
01
0<
#555000
1$
11
1<
#560000
0$
01
0<
#565000
1$
11
1<
#570000
0$
0'
01
02
0A
0<
1[
#575000
1$
11
1<
1B
xD
xG
xJ
xM
xN
xO
xP
0S
1C
0F
0I
0L
x@
xE
xH
xK
xQ
xT
xU
xV
1W
1X
1Y
0Z
x8
x9
x:
x;
xC
xF
xI
xL
x4
x5
x6
x7
xW
xX
xY
xZ
x!
x"
x#
x%
#580000
0$
01
0<
#585000
1$
11
1<
#590000
0$
01
0<
#595000
1$
11
1<
#600000
0$
01
0<
#605000
1$
11
1<
#610000
0$
01
0<
#615000
1$
11
1<
#620000
0$
01
0<
#625000
1$
11
1<
#630000
0$
01
0<
#635000
1$
11
1<
#640000
0$
01
0<
#645000
1$
11
1<
#650000
0$
1&
01
13
1=
0<
0?
1R
1>
#655000
1$
11
1<
#660000
0$
01
0<
#665000
1$
11
1<
#670000
0$
01
0<
#675000
1$
11
1<
#680000
0$
01
0<
#685000
1$
11
1<
#690000
0$
01
0<
#695000
1$
11
1<
#700000
0$
01
0<
#705000
1$
11
1<
#710000
0$
01
0<
#715000
1$
11
1<
#720000
0$
01
0<
#725000
1$
11
1<
#730000
0$
01
0<
#735000
1$
11
1<
#740000
0$
01
0<
#745000
1$
11
1<
#750000
0$
01
0<
#755000
1$
11
1<
#760000
0$
01
0<
#765000
1$
11
1<
#770000
0$
01
0<
#775000
1$
11
1<
#780000
0$
01
0<
#785000
1$
11
1<
#790000
0$
01
0<
#795000
1$
11
1<
#800000
0$
01
0<
#805000
1$
11
1<
#810000
0$
01
0<
#815000
1$
11
1<
#820000
0$
01
0<
#825000
1$
11
1<
#830000
0$
01
0<
#835000
1$
11
1<
#840000
0$
01
0<
#845000
1$
11
1<
#850000
0$
01
0<
#855000
1$
11
1<
#860000
0$
01
0<
#865000
1$
11
1<
#870000
0$
01
0<
#875000
1$
11
1<
#880000
0$
01
0<
#885000
1$
11
1<
#890000
0$
1'
01
12
1A
0<
0[
0B
0D
0G
0J
0M
1N
1O
1P
1S
0@
1E
0H
1K
0Q
1T
0U
1V
08
09
0:
0;
04
05
06
07
0!
0"
0#
0%
#895000
1$
11
1<
#900000
0$
01
0<
#905000
1$
11
1<
#910000
0$
01
0<
#915000
1$
11
1<
#920000
0$
01
0<
#925000
1$
11
1<
#930000
0$
0&
01
03
0=
0<
#935000
1$
11
1<
#940000
0$
01
0<
#945000
1$
11
1<
#950000
0$
01
0<
#955000
1$
11
1<
#960000
0$
01
0<
#965000
1$
11
1<
#970000
0$
01
0<
#975000
1$
11
1<
#980000
0$
01
0<
#985000
1$
11
1<
#990000
0$
0'
01
02
0A
0<
1[
#995000
1$
11
1<
1B
xD
xG
xJ
xM
xN
xO
xP
0S
0C
0F
1I
0L
x@
xE
xH
xK
xQ
xT
xU
xV
1W
0X
1Y
1Z
x8
x9
x:
x;
xC
xF
xI
xL
x4
x5
x6
x7
xW
xX
xY
xZ
x!
x"
x#
x%
