frequency_divider/simulation/qsim/frequency_divider.msim.vcd
$comment
	File created using the following command:
		vcd file frequency_divider.msim.vcd -direction
$end
$date
	Mon Oct 23 21:01:19 2023
$end
$version
	ModelSim Version 10.5b
$end
$timescale
	1ps
$end

$scope module frequency_divider_vhd_vec_tst $end
$var wire 1 ! clk $end
$var wire 1 " div_out $end

$scope module i1 $end
$var wire 1 # gnd $end
$var wire 1 $ vcc $end
$var wire 1 % unknown $end
$var wire 1 & devoe $end
$var wire 1 ' devclrn $end
$var wire 1 ( devpor $end
$var wire 1 ) ww_devoe $end
$var wire 1 * ww_devclrn $end
$var wire 1 + ww_devpor $end
$var wire 1 , ww_clk $end
$var wire 1 - ww_div_out $end
$var wire 1 . \div_out~output_o\ $end
$var wire 1 / \clk~input_o\ $end
$var wire 1 0 \Add0~57_sumout\ $end
$var wire 1 1 \Equal0~1_combout\ $end
$var wire 1 2 \Equal0~2_combout\ $end
$var wire 1 3 \Equal0~3_combout\ $end
$var wire 1 4 \Equal0~4_combout\ $end
$var wire 1 5 \Equal0~5_combout\ $end
$var wire 1 6 \Add0~58\ $end
$var wire 1 7 \Add0~61_sumout\ $end
$var wire 1 8 \Add0~62\ $end
$var wire 1 9 \Add0~65_sumout\ $end
$var wire 1 : \Add0~66\ $end
$var wire 1 ; \Add0~69_sumout\ $end
$var wire 1 < \Add0~70\ $end
$var wire 1 = \Add0~73_sumout\ $end
$var wire 1 > \Add0~74\ $end
$var wire 1 ? \Add0~77_sumout\ $end
$var wire 1 @ \Add0~78\ $end
$var wire 1 A \Add0~81_sumout\ $end
$var wire 1 B \Add0~82\ $end
$var wire 1 C \Add0~85_sumout\ $end
$var wire 1 D \Add0~86\ $end
$var wire 1 E \Add0~89_sumout\ $end
$var wire 1 F \Add0~90\ $end
$var wire 1 G \Add0~93_sumout\ $end
$var wire 1 H \Add0~94\ $end
$var wire 1 I \Add0~97_sumout\ $end
$var wire 1 J \Add0~98\ $end
$var wire 1 K \Add0~101_sumout\ $end
$var wire 1 L \Add0~102\ $end
$var wire 1 M \Add0~33_sumout\ $end
$var wire 1 N \Add0~34\ $end
$var wire 1 O \Add0~37_sumout\ $end
$var wire 1 P \Add0~38\ $end
$var wire 1 Q \Add0~41_sumout\ $end
$var wire 1 R \Add0~42\ $end
$var wire 1 S \Add0~45_sumout\ $end
$var wire 1 T \Add0~46\ $end
$var wire 1 U \Add0~49_sumout\ $end
$var wire 1 V \Add0~50\ $end
$var wire 1 W \Add0~53_sumout\ $end
$var wire 1 X \Add0~54\ $end
$var wire 1 Y \Add0~9_sumout\ $end
$var wire 1 Z \Add0~10\ $end
$var wire 1 [ \Add0~13_sumout\ $end
$var wire 1 \ \Add0~14\ $end
$var wire 1 ] \Add0~17_sumout\ $end
$var wire 1 ^ \Add0~18\ $end
$var wire 1 _ \Add0~21_sumout\ $end
$var wire 1 ` \Add0~22\ $end
$var wire 1 a \Add0~25_sumout\ $end
$var wire 1 b \Add0~26\ $end
$var wire 1 c \Add0~29_sumout\ $end
$var wire 1 d \Add0~30\ $end
$var wire 1 e \Add0~1_sumout\ $end
$var wire 1 f \Add0~2\ $end
$var wire 1 g \Add0~5_sumout\ $end
$var wire 1 h \Equal0~0_combout\ $end
$var wire 1 i \local_out~0_combout\ $end
$var wire 1 j \local_out~q\ $end
$var wire 1 k iterations [25] $end
$var wire 1 l iterations [24] $end
$var wire 1 m iterations [23] $end
$var wire 1 n iterations [22] $end
$var wire 1 o iterations [21] $end
$var wire 1 p iterations [20] $end
$var wire 1 q iterations [19] $end
$var wire 1 r iterations [18] $end
$var wire 1 s iterations [17] $end
$var wire 1 t iterations [16] $end
$var wire 1 u iterations [15] $end
$var wire 1 v iterations [14] $end
$var wire 1 w iterations [13] $end
$var wire 1 x iterations [12] $end
$var wire 1 y iterations [11] $end
$var wire 1 z iterations [10] $end
$var wire 1 { iterations [9] $end
$var wire 1 | iterations [8] $end
$var wire 1 } iterations [7] $end
$var wire 1 ~ iterations [6] $end
$var wire 1 !! iterations [5] $end
$var wire 1 "! iterations [4] $end
$var wire 1 #! iterations [3] $end
$var wire 1 $! iterations [2] $end
$var wire 1 %! iterations [1] $end
$var wire 1 &! iterations [0] $end
$var wire 1 '! \ALT_INV_Equal0~4_combout\ $end
$var wire 1 (! \ALT_INV_Equal0~3_combout\ $end
$var wire 1 )! \ALT_INV_Equal0~2_combout\ $end
$var wire 1 *! \ALT_INV_Equal0~1_combout\ $end
$var wire 1 +! \ALT_INV_Equal0~0_combout\ $end
$var wire 1 ,! \ALT_INV_local_out~q\ $end
$var wire 1 -! ALT_INV_iterations [25] $end
$var wire 1 .! ALT_INV_iterations [24] $end
$var wire 1 /! ALT_INV_iterations [23] $end
$var wire 1 0! ALT_INV_iterations [22] $end
$var wire 1 1! ALT_INV_iterations [21] $end
$var wire 1 2! ALT_INV_iterations [20] $end
$var wire 1 3! ALT_INV_iterations [19] $end
$var wire 1 4! ALT_INV_iterations [18] $end
$var wire 1 5! ALT_INV_iterations [17] $end
$var wire 1 6! ALT_INV_iterations [16] $end
$var wire 1 7! ALT_INV_iterations [15] $end
$var wire 1 8! ALT_INV_iterations [14] $end
$var wire 1 9! ALT_INV_iterations [13] $end
$var wire 1 :! ALT_INV_iterations [12] $end
$var wire 1 ;! ALT_INV_iterations [11] $end
$var wire 1 <! ALT_INV_iterations [10] $end
$var wire 1 =! ALT_INV_iterations [9] $end
$var wire 1 >! ALT_INV_iterations [8] $end
$var wire 1 ?! ALT_INV_iterations [7] $end
$var wire 1 @! ALT_INV_iterations [6] $end
$var wire 1 A! ALT_INV_iterations [5] $end
$var wire 1 B! ALT_INV_iterations [4] $end
$var wire 1 C! ALT_INV_iterations [3] $end
$var wire 1 D! ALT_INV_iterations [2] $end
$var wire 1 E! ALT_INV_iterations [1] $end
$var wire 1 F! ALT_INV_iterations [0] $end
$upscope $end
$upscope $end
$enddefinitions $end
#0
$dumpvars
0!
0"
0#
1$
x%
1&
1'
1(
1)
1*
1+
0,
0-
0.
0/
10
11
12
03
14
05
06
07
08
09
0:
0;
0<
0=
0>
0?
0@
0A
0B
0C
0D
0E
0F
0G
0H
0I
0J
0K
0L
0M
0N
0O
0P
0Q
0R
0S
0T
0U
0V
0W
0X
0Y
0Z
0[
0\
0]
0^
0_
0`
0a
0b
0c
0d
0e
0f
0g
1h
0i
0j
0'!
1(!
0)!
0*!
0+!
1,!
0k
0l
0m
0n
0o
0p
0q
0r
0s
0t
0u
0v
0w
0x
0y
0z
0{
0|
0}
0~
0!!
0"!
0#!
0$!
0%!
0&!
1-!
1.!
1/!
10!
11!
12!
13!
14!
15!
16!
17!
18!
19!
1:!
1;!
1<!
1=!
1>!
1?!
1@!
1A!
1B!
1C!
1D!
1E!
1F!
$end
#500
1!
1,
1/
1&!
0F!
00
16
17
#1000
0!
0,
0/
#1500
1!
1,
1/
0&!
1%!
0E!
1F!
10
06
07
18
19
17
08
09
#2000
0!
0,
0/
#2500
1!
1,
1/
1&!
0F!
00
16
07
18
19
#3000
0!
0,
0/
#3500
1!
1,
1/
0&!
0%!
1$!
0D!
1E!
1F!
10
06
17
08
09
1:
1;
19
0:
07
0;
#4000
0!
0,
0/
#4500
1!
1,
1/
1&!
0F!
00
16
13
0(!
17
15
1i
#5000
0!
0,
0/
#5500
1!
1,
1/
0&!
0$!
1j
0,!
1D!
1F!
10
06
03
09
0i
1(!
1.
07
05
1i
1-
1"
#6000
0!
0,
0/
#6500
1!
1,
1/
1&!
0F!
00
16
17
#7000
0!
0,
0/
#7500
1!
1,
1/
0&!
1%!
0E!
1F!
10
06
07
18
19
17
08
09
#8000
0!
0,
0/
#8500
1!
1,
1/
1&!
0F!
00
16
07
18
19
#9000
0!
0,
0/
#9500
1!
1,
1/
0&!
0%!
1$!
0D!
1E!
1F!
10
06
17
08
09
1:
1;
19
0:
07
0;
#10000
0!
0,
0/
#10500
1!
1,
1/
1&!
0F!
00
16
13
0(!
17
15
0i
#11000
0!
0,
0/
#11500
1!
1,
1/
0&!
0$!
0j
1,!
1D!
1F!
10
06
03
09
1i
1(!
0.
07
05
0i
0-
0"
#12000
0!
0,
0/
#12500
1!
1,
1/
1&!
0F!
00
16
17
#13000
0!
0,
0/
#13500
1!
1,
1/
0&!
1%!
0E!
1F!
10
06
07
18
19
17
08
09
#14000
0!
0,
0/
#14500
1!
1,
1/
1&!
0F!
00
16
07
18
19
#15000
0!
0,
0/
#15500
1!
1,
1/
0&!
0%!
1$!
0D!
1E!
1F!
10
06
17
08
09
1:
1;
19
0:
07
0;
#16000
0!
0,
0/
#16500
1!
1,
1/
1&!
0F!
00
16
13
0(!
17
15
1i
#17000
0!
0,
0/
#17500
1!
1,
1/
0&!
0$!
1j
0,!
1D!
1F!
10
06
03
09
0i
1(!
1.
07
05
1i
1-
1"
#18000
0!
0,
0/
#18500
1!
1,
1/
1&!
0F!
00
16
17
#19000
0!
0,
0/
#19500
1!
1,
1/
0&!
1%!
0E!
1F!
10
06
07
18
19
17
08
09
#20000
0!
0,
0/
#20500
1!
1,
1/
1&!
0F!
00
16
07
18
19
#21000
0!
0,
0/
#21500
1!
1,
1/
0&!
0%!
1$!
0D!
1E!
1F!
10
06
17
08
09
1:
1;
19
0:
07
0;
#22000
0!
0,
0/
#22500
1!
1,
1/
1&!
0F!
00
16
13
0(!
17
15
0i
#23000
0!
0,
0/
#23500
1!
1,
1/
0&!
0$!
0j
1,!
1D!
1F!
10
06
03
09
1i
1(!
0.
07
05
0i
0-
0"
#24000
0!
0,
0/
#24500
1!
1,
1/
1&!
0F!
00
16
17
#25000
0!
0,
0/
#25500
1!
1,
1/
0&!
1%!
0E!
1F!
10
06
07
18
19
17
08
09
#26000
0!
0,
0/
#26500
1!
1,
1/
1&!
0F!
00
16
07
18
19
#27000
0!
0,
0/
#27500
1!
1,
1/
0&!
0%!
1$!
0D!
1E!
1F!
10
06
17
08
09
1:
1;
19
0:
07
0;
#28000
0!
0,
0/
#28500
1!
1,
1/
1&!
0F!
00
16
13
0(!
17
15
1i
#29000
0!
0,
0/
#29500
1!
1,
1/
0&!
0$!
1j
0,!
1D!
1F!
10
06
03
09
0i
1(!
1.
07
05
1i
1-
1"
#30000
0!
0,
0/
#30500
1!
1,
1/
1&!
0F!
00
16
17
#31000
0!
0,
0/
#31500
1!
1,
1/
0&!
1%!
0E!
1F!
10
06
07
18
19
17
08
09
#32000
0!
0,
0/
#32500
1!
1,
1/
1&!
0F!
00
16
07
18
19
#33000
0!
0,
0/
#33500
1!
1,
1/
0&!
0%!
1$!
0D!
1E!
1F!
10
06
17
08
09
1:
1;
19
0:
07
0;
#34000
0!
0,
0/
#34500
1!
1,
1/
1&!
0F!
00
16
13
0(!
17
15
0i
#35000
0!
0,
0/
#35500
1!
1,
1/
0&!
0$!
0j
1,!
1D!
1F!
10
06
03
09
1i
1(!
0.
07
05
0i
0-
0"
#36000
0!
0,
0/
#36500
1!
1,
1/
1&!
0F!
00
16
17
#37000
0!
0,
0/
#37500
1!
1,
1/
0&!
1%!
0E!
1F!
10
06
07
18
19
17
08
09
#38000
0!
0,
0/
#38500
1!
1,
1/
1&!
0F!
00
16
07
18
19
#39000
0!
0,
0/
#39500
1!
1,
1/
0&!
0%!
1$!
0D!
1E!
1F!
10
06
17
08
09
1:
1;
19
0:
07
0;
#40000
0!
0,
0/
#40500
1!
1,
1/
1&!
0F!
00
16
13
0(!
17
15
1i
#41000
0!
0,
0/
#41500
1!
1,
1/
0&!
0$!
1j
0,!
1D!
1F!
10
06
03
09
0i
1(!
1.
07
05
1i
1-
1"
#42000
0!
0,
0/
#42500
1!
1,
1/
1&!
0F!
00
16
17
#43000
0!
0,
0/
#43500
1!
1,
1/
0&!
1%!
0E!
1F!
10
06
07
18
19
17
08
09
#44000
0!
0,
0/
#44500
1!
1,
1/
1&!
0F!
00
16
07
18
19
#45000
0!
0,
0/
#45500
1!
1,
1/
0&!
0%!
1$!
0D!
1E!
1F!
10
06
17
08
09
1:
1;
19
0:
07
0;
#46000
0!
0,
0/
#46500
1!
1,
1/
1&!
0F!
00
16
13
0(!
17
15
0i
#47000
0!
0,
0/
#47500
1!
1,
1/
0&!
0$!
0j
1,!
1D!
1F!
10
06
03
09
1i
1(!
0.
07
05
0i
0-
0"
#48000
0!
0,
0/
#48500
1!
1,
1/
1&!
0F!
00
16
17
#49000
0!
0,
0/
#49500
1!
1,
1/
0&!
1%!
0E!
1F!
10
06
07
18
19
17
08
09
#50000
0!
0,
0/
#50500
1!
1,
1/
1&!
0F!
00
16
07
18
19
#51000
0!
0,
0/
#51500
1!
1,
1/
0&!
0%!
1$!
0D!
1E!
1F!
10
06
17
08
09
1:
1;
19
0:
07
0;
#52000
0!
0,
0/
#52500
1!
1,
1/
1&!
0F!
00
16
13
0(!
17
15
1i
#53000
0!
0,
0/
#53500
1!
1,
1/
0&!
0$!
1j
0,!
1D!
1F!
10
06
03
09
0i
1(!
1.
07
05
1i
1-
1"
#54000
0!
0,
0/
#54500
1!
1,
1/
1&!
0F!
00
16
17
#55000
0!
0,
0/
#55500
1!
1,
1/
0&!
1%!
0E!
1F!
10
06
07
18
19
17
08
09
#56000
0!
0,
0/
#56500
1!
1,
1/
1&!
0F!
00
16
07
18
19
#57000
0!
0,
0/
#57500
1!
1,
1/
0&!
0%!
1$!
0D!
1E!
1F!
10
06
17
08
09
1:
1;
19
0:
07
0;
#58000
0!
0,
0/
#58500
1!
1,
1/
1&!
0F!
00
16
13
0(!
17
15
0i
#59000
0!
0,
0/
#59500
1!
1,
1/
0&!
0$!
0j
1,!
1D!
1F!
10
06
03
09
1i
1(!
0.
07
05
0i
0-
0"
#60000
0!
0,
0/
#60500
1!
1,
1/
1&!
0F!
00
16
17
#61000
0!
0,
0/
#61500
1!
1,
1/
0&!
1%!
0E!
1F!
10
06
07
18
19
17
08
09
#62000
0!
0,
0/
#62500
1!
1,
1/
1&!
0F!
00
16
07
18
19
#63000
0!
0,
0/
#63500
1!
1,
1/
0&!
0%!
1$!
0D!
1E!
1F!
10
06
17
08
09
1:
1;
19
0:
07
0;
#64000
0!
0,
0/
#64500
1!
1,
1/
1&!
0F!
00
16
13
0(!
17
15
1i
#65000
0!
0,
0/
#65500
1!
1,
1/
0&!
0$!
1j
0,!
1D!
1F!
10
06
03
09
0i
1(!
1.
07
05
1i
1-
1"
#66000
0!
0,
0/
#66500
1!
1,
1/
1&!
0F!
00
16
17
#67000
0!
0,
0/
#67500
1!
1,
1/
0&!
1%!
0E!
1F!
10
06
07
18
19
17
08
09
#68000
0!
0,
0/
#68500
1!
1,
1/
1&!
0F!
00
16
07
18
19
#69000
0!
0,
0/
#69500
1!
1,
1/
0&!
0%!
1$!
0D!
1E!
1F!
10
06
17
08
09
1:
1;
19
0:
07
0;
#70000
0!
0,
0/
#70500
1!
1,
1/
1&!
0F!
00
16
13
0(!
17
15
0i
#71000
0!
0,
0/
#71500
1!
1,
1/
0&!
0$!
0j
1,!
1D!
1F!
10
06
03
09
1i
1(!
0.
07
05
0i
0-
0"
#72000
0!
0,
0/
#72500
1!
1,
1/
1&!
0F!
00
16
17
#73000
0!
0,
0/
#73500
1!
1,
1/
0&!
1%!
0E!
1F!
10
06
07
18
19
17
08
09
#74000
0!
0,
0/
#74500
1!
1,
1/
1&!
0F!
00
16
07
18
19
#75000
0!
0,
0/
#75500
1!
1,
1/
0&!
0%!
1$!
0D!
1E!
1F!
10
06
17
08
09
1:
1;
19
0:
07
0;
#76000
0!
0,
0/
#76500
1!
1,
1/
1&!
0F!
00
16
13
0(!
17
15
1i
#77000
0!
0,
0/
#77500
1!
1,
1/
0&!
0$!
1j
0,!
1D!
1F!
10
06
03
09
0i
1(!
1.
07
05
1i
1-
1"
#78000
0!
0,
0/
#78500
1!
1,
1/
1&!
0F!
00
16
17
#79000
0!
0,
0/
#79500
1!
1,
1/
0&!
1%!
0E!
1F!
10
06
07
18
19
17
08
09
#80000
0!
0,
0/
#80500
1!
1,
1/
1&!
0F!
00
16
07
18
19
#81000
0!
0,
0/
#81500
1!
1,
1/
0&!
0%!
1$!
0D!
1E!
1F!
10
06
17
08
09
1:
1;
19
0:
07
0;
#82000
0!
0,
0/
#82500
1!
1,
1/
1&!
0F!
00
16
13
0(!
17
15
0i
#83000
0!
0,
0/
#83500
1!
1,
1/
0&!
0$!
0j
1,!
1D!
1F!
10
06
03
09
1i
1(!
0.
07
05
0i
0-
0"
#84000
0!
0,
0/
#84500
1!
1,
1/
1&!
0F!
00
16
17
#85000
0!
0,
0/
#85500
1!
1,
1/
0&!
1%!
0E!
1F!
10
06
07
18
19
17
08
09
#86000
0!
0,
0/
#86500
1!
1,
1/
1&!
0F!
00
16
07
18
19
#87000
0!
0,
0/
#87500
1!
1,
1/
0&!
0%!
1$!
0D!
1E!
1F!
10
06
17
08
09
1:
1;
19
0:
07
0;
#88000
0!
0,
0/
#88500
1!
1,
1/
1&!
0F!
00
16
13
0(!
17
15
1i
#89000
0!
0,
0/
#89500
1!
1,
1/
0&!
0$!
1j
0,!
1D!
1F!
10
06
03
09
0i
1(!
1.
07
05
1i
1-
1"
#90000
0!
0,
0/
#90500
1!
1,
1/
1&!
0F!
00
16
17
#91000
0!
0,
0/
#91500
1!
1,
1/
0&!
1%!
0E!
1F!
10
06
07
18
19
17
08
09
#92000
0!
0,
0/
#92500
1!
1,
1/
1&!
0F!
00
16
07
18
19
#93000
0!
0,
0/
#93500
1!
1,
1/
0&!
0%!
1$!
0D!
1E!
1F!
10
06
17
08
09
1:
1;
19
0:
07
0;
#94000
0!
0,
0/
#94500
1!
1,
1/
1&!
0F!
00
16
13
0(!
17
15
0i
#95000
0!
0,
0/
#95500
1!
1,
1/
0&!
0$!
0j
1,!
1D!
1F!
10
06
03
09
1i
1(!
0.
07
05
0i
0-
0"
#96000
0!
0,
0/
#96500
1!
1,
1/
1&!
0F!
00
16
17
#97000
0!
0,
0/
#97500
1!
1,
1/
0&!
1%!
0E!
1F!
10
06
07
18
19
17
08
09
#98000
0!
0,
0/
#98500
1!
1,
1/
1&!
0F!
00
16
07
18
19
#99000
0!
0,
0/
#99500
1!
1,
1/
0&!
0%!
1$!
0D!
1E!
1F!
10
06
17
08
09
1:
1;
19
0:
07
0;
#100000
0!
0,
0/
#100500
1!
1,
1/
1&!
0F!
00
16
13
0(!
17
15
1i
#101000
0!
0,
0/
#101500
1!
1,
1/
0&!
0$!
1j
0,!
1D!
1F!
10
06
03
09
0i
1(!
1.
07
05
1i
1-
1"
#102000
0!
0,
0/
#102500
1!
1,
1/
1&!
0F!
00
16
17
#103000
0!
0,
0/
#103500
1!
1,
1/
0&!
1%!
0E!
1F!
10
06
07
18
19
17
08
09
#104000
0!
0,
0/
#104500
1!
1,
1/
1&!
0F!
00
16
07
18
19
#105000
0!
0,
0/
#105500
1!
1,
1/
0&!
0%!
1$!
0D!
1E!
1F!
10
06
17
08
09
1:
1;
19
0:
07
0;
#106000
0!
0,
0/
#106500
1!
1,
1/
1&!
0F!
00
16
13
0(!
17
15
0i
#107000
0!
0,
0/
#107500
1!
1,
1/
0&!
0$!
0j
1,!
1D!
1F!
10
06
03
09
1i
1(!
0.
07
05
0i
0-
0"
#108000
0!
0,
0/
#108500
1!
1,
1/
1&!
0F!
00
16
17
#109000
0!
0,
0/
#109500
1!
1,
1/
0&!
1%!
0E!
1F!
10
06
07
18
19
17
08
09
#110000
0!
0,
0/
#110500
1!
1,
1/
1&!
0F!
00
16
07
18
19
#111000
0!
0,
0/
#111500
1!
1,
1/
0&!
0%!
1$!
0D!
1E!
1F!
10
06
17
08
09
1:
1;
19
0:
07
0;
#112000
0!
0,
0/
#112500
1!
1,
1/
1&!
0F!
00
16
13
0(!
17
15
1i
#113000
0!
0,
0/
#113500
1!
1,
1/
0&!
0$!
1j
0,!
1D!
1F!
10
06
03
09
0i
1(!
1.
07
05
1i
1-
1"
#114000
0!
0,
0/
#114500
1!
1,
1/
1&!
0F!
00
16
17
#115000
0!
0,
0/
#115500
1!
1,
1/
0&!
1%!
0E!
1F!
10
06
07
18
19
17
08
09
#116000
0!
0,
0/
#116500
1!
1,
1/
1&!
0F!
00
16
07
18
19
#117000
0!
0,
0/
#117500
1!
1,
1/
0&!
0%!
1$!
0D!
1E!
1F!
10
06
17
08
09
1:
1;
19
0:
07
0;
#118000
0!
0,
0/
#118500
1!
1,
1/
1&!
0F!
00
16
13
0(!
17
15
0i
#119000
0!
0,
0/
#119500
1!
1,
1/
0&!
0$!
0j
1,!
1D!
1F!
10
06
03
09
1i
1(!
0.
07
05
0i
0-
0"
#120000
0!
0,
0/
#120500
1!
1,
1/
1&!
0F!
00
16
17
#121000
0!
0,
0/
#121500
1!
1,
1/
0&!
1%!
0E!
1F!
10
06
07
18
19
17
08
09
#122000
0!
0,
0/
#122500
1!
1,
1/
1&!
0F!
00
16
07
18
19
#123000
0!
0,
0/
#123500
1!
1,
1/
0&!
0%!
1$!
0D!
1E!
1F!
10
06
17
08
09
1:
1;
19
0:
07
0;
#124000
0!
0,
0/
#124500
1!
1,
1/
1&!
0F!
00
16
13
0(!
17
15
1i
#125000
0!
0,
0/
#125500
1!
1,
1/
0&!
0$!
1j
0,!
1D!
1F!
10
06
03
09
0i
1(!
1.
07
05
1i
1-
1"
#126000
0!
0,
0/
#126500
1!
1,
1/
1&!
0F!
00
16
17
#127000
0!
0,
0/
#127500
1!
1,
1/
0&!
1%!
0E!
1F!
10
06
07
18
19
17
08
09
#128000
0!
0,
0/
#128500
1!
1,
1/
1&!
0F!
00
16
07
18
19
#129000
0!
0,
0/
#129500
1!
1,
1/
0&!
0%!
1$!
0D!
1E!
1F!
10
06
17
08
09
1:
1;
19
0:
07
0;
#130000
0!
0,
0/
#130500
1!
1,
1/
1&!
0F!
00
16
13
0(!
17
15
0i
#131000
0!
0,
0/
#131500
1!
1,
1/
0&!
0$!
0j
1,!
1D!
1F!
10
06
03
09
1i
1(!
0.
07
05
0i
0-
0"
#132000
0!
0,
0/
#132500
1!
1,
1/
1&!
0F!
00
16
17
#133000
0!
0,
0/
#133500
1!
1,
1/
0&!
1%!
0E!
1F!
10
06
07
18
19
17
08
09
#134000
0!
0,
0/
#134500
1!
1,
1/
1&!
0F!
00
16
07
18
19
#135000
0!
0,
0/
#135500
1!
1,
1/
0&!
0%!
1$!
0D!
1E!
1F!
10
06
17
08
09
1:
1;
19
0:
07
0;
#136000
0!
0,
0/
#136500
1!
1,
1/
1&!
0F!
00
16
13
0(!
17
15
1i
#137000
0!
0,
0/
#137500
1!
1,
1/
0&!
0$!
1j
0,!
1D!
1F!
10
06
03
09
0i
1(!
1.
07
05
1i
1-
1"
#138000
0!
0,
0/
#138500
1!
1,
1/
1&!
0F!
00
16
17
#139000
0!
0,
0/
#139500
1!
1,
1/
0&!
1%!
0E!
1F!
10
06
07
18
19
17
08
09
#140000
0!
0,
0/
#140500
1!
1,
1/
1&!
0F!
00
16
07
18
19
#141000
0!
0,
0/
#141500
1!
1,
1/
0&!
0%!
1$!
0D!
1E!
1F!
10
06
17
08
09
1:
1;
19
0:
07
0;
#142000
0!
0,
0/
#142500
1!
1,
1/
1&!
0F!
00
16
13
0(!
17
15
0i
#143000
0!
0,
0/
#143500
1!
1,
1/
0&!
0$!
0j
1,!
1D!
1F!
10
06
03
09
1i
1(!
0.
07
05
0i
0-
0"
#144000
0!
0,
0/
#144500
1!
1,
1/
1&!
0F!
00
16
17
#145000
0!
0,
0/
#145500
1!
1,
1/
0&!
1%!
0E!
1F!
10
06
07
18
19
17
08
09
#146000
0!
0,
0/
#146500
1!
1,
1/
1&!
0F!
00
16
07
18
19
#147000
0!
0,
0/
#147500
1!
1,
1/
0&!
0%!
1$!
0D!
1E!
1F!
10
06
17
08
09
1:
1;
19
0:
07
0;
#148000
0!
0,
0/
#148500
1!
1,
1/
1&!
0F!
00
16
13
0(!
17
15
1i
#149000
0!
0,
0/
#149500
1!
1,
1/
0&!
0$!
1j
0,!
1D!
1F!
10
06
03
09
0i
1(!
1.
07
05
1i
1-
1"
#150000
0!
0,
0/
#150500
1!
1,
1/
1&!
0F!
00
16
17
#151000
0!
0,
0/
#151500
1!
1,
1/
0&!
1%!
0E!
1F!
10
06
07
18
19
17
08
09
#152000
0!
0,
0/
#152500
1!
1,
1/
1&!
0F!
00
16
07
18
19
#153000
0!
0,
0/
#153500
1!
1,
1/
0&!
0%!
1$!
0D!
1E!
1F!
10
06
17
08
09
1:
1;
19
0:
07
0;
#154000
0!
0,
0/
#154500
1!
1,
1/
1&!
0F!
00
16
13
0(!
17
15
0i
#155000
0!
0,
0/
#155500
1!
1,
1/
0&!
0$!
0j
1,!
1D!
1F!
10
06
03
09
1i
1(!
0.
07
05
0i
0-
0"
#156000
0!
0,
0/
#156500
1!
1,
1/
1&!
0F!
00
16
17
#157000
0!
0,
0/
#157500
1!
1,
1/
0&!
1%!
0E!
1F!
10
06
07
18
19
17
08
09
#158000
0!
0,
0/
#158500
1!
1,
1/
1&!
0F!
00
16
07
18
19
#159000
0!
0,
0/
#159500
1!
1,
1/
0&!
0%!
1$!
0D!
1E!
1F!
10
06
17
08
09
1:
1;
19
0:
07
0;
#160000
0!
0,
0/
#160500
1!
1,
1/
1&!
0F!
00
16
13
0(!
17
15
1i
#161000
0!
0,
0/
#161500
1!
1,
1/
0&!
0$!
1j
0,!
1D!
1F!
10
06
03
09
0i
1(!
1.
07
05
1i
1-
1"
#162000
0!
0,
0/
#162500
1!
1,
1/
1&!
0F!
00
16
17
#163000
0!
0,
0/
#163500
1!
1,
1/
0&!
1%!
0E!
1F!
10
06
07
18
19
17
08
09
#164000
0!
0,
0/
#164500
1!
1,
1/
1&!
0F!
00
16
07
18
19
#165000
0!
0,
0/
#165500
1!
1,
1/
0&!
0%!
1$!
0D!
1E!
1F!
10
06
17
08
09
1:
1;
19
0:
07
0;
#166000
0!
0,
0/
#166500
1!
1,
1/
1&!
0F!
00
16
13
0(!
17
15
0i
#167000
0!
0,
0/
#167500
1!
1,
1/
0&!
0$!
0j
1,!
1D!
1F!
10
06
03
09
1i
1(!
0.
07
05
0i
0-
0"
#168000
0!
0,
0/
#168500
1!
1,
1/
1&!
0F!
00
16
17
#169000
0!
0,
0/
#169500
1!
1,
1/
0&!
1%!
0E!
1F!
10
06
07
18
19
17
08
09
#170000
0!
0,
0/
#170500
1!
1,
1/
1&!
0F!
00
16
07
18
19
#171000
0!
0,
0/
#171500
1!
1,
1/
0&!
0%!
1$!
0D!
1E!
1F!
10
06
17
08
09
1:
1;
19
0:
07
0;
#172000
0!
0,
0/
#172500
1!
1,
1/
1&!
0F!
00
16
13
0(!
17
15
1i
#173000
0!
0,
0/
#173500
1!
1,
1/
0&!
0$!
1j
0,!
1D!
1F!
10
06
03
09
0i
1(!
1.
07
05
1i
1-
1"
#174000
0!
0,
0/
#174500
1!
1,
1/
1&!
0F!
00
16
17
#175000
0!
0,
0/
#175500
1!
1,
1/
0&!
1%!
0E!
1F!
10
06
07
18
19
17
08
09
#176000
0!
0,
0/
#176500
1!
1,
1/
1&!
0F!
00
16
07
18
19
#177000
0!
0,
0/
#177500
1!
1,
1/
0&!
0%!
1$!
0D!
1E!
1F!
10
06
17
08
09
1:
1;
19
0:
07
0;
#178000
0!
0,
0/
#178500
1!
1,
1/
1&!
0F!
00
16
13
0(!
17
15
0i
#179000
0!
0,
0/
#179500
1!
1,
1/
0&!
0$!
0j
1,!
1D!
1F!
10
06
03
09
1i
1(!
0.
07
05
0i
0-
0"
#180000
0!
0,
0/
#180500
1!
1,
1/
1&!
0F!
00
16
17
#181000
0!
0,
0/
#181500
1!
1,
1/
0&!
1%!
0E!
1F!
10
06
07
18
19
17
08
09
#182000
0!
0,
0/
#182500
1!
1,
1/
1&!
0F!
00
16
07
18
19
#183000
0!
0,
0/
#183500
1!
1,
1/
0&!
0%!
1$!
0D!
1E!
1F!
10
06
17
08
09
1:
1;
19
0:
07
0;
#184000
0!
0,
0/
#184500
1!
1,
1/
1&!
0F!
00
16
13
0(!
17
15
1i
#185000
0!
0,
0/
#185500
1!
1,
1/
0&!
0$!
1j
0,!
1D!
1F!
10
06
03
09
0i
1(!
1.
07
05
1i
1-
1"
#186000
0!
0,
0/
#186500
1!
1,
1/
1&!
0F!
00
16
17
#187000
0!
0,
0/
#187500
1!
1,
1/
0&!
1%!
0E!
1F!
10
06
07
18
19
17
08
09
#188000
0!
0,
0/
#188500
1!
1,
1/
1&!
0F!
00
16
07
18
19
#189000
0!
0,
0/
#189500
1!
1,
1/
0&!
0%!
1$!
0D!
1E!
1F!
10
06
17
08
09
1:
1;
19
0:
07
0;
#190000
0!
0,
0/
#190500
1!
1,
1/
1&!
0F!
00
16
13
0(!
17
15
0i
#191000
0!
0,
0/
#191500
1!
1,
1/
0&!
0$!
0j
1,!
1D!
1F!
10
06
03
09
1i
1(!
0.
07
05
0i
0-
0"
#192000
0!
0,
0/
#192500
1!
1,
1/
1&!
0F!
00
16
17
#193000
0!
0,
0/
#193500
1!
1,
1/
0&!
1%!
0E!
1F!
10
06
07
18
19
17
08
09
#194000
0!
0,
0/
#194500
1!
1,
1/
1&!
0F!
00
16
07
18
19
#195000
0!
0,
0/
#195500
1!
1,
1/
0&!
0%!
1$!
0D!
1E!
1F!
10
06
17
08
09
1:
1;
19
0:
07
0;
#196000
0!
0,
0/
#196500
1!
1,
1/
1&!
0F!
00
16
13
0(!
17
15
1i
#197000
0!
0,
0/
#197500
1!
1,
1/
0&!
0$!
1j
0,!
1D!
1F!
10
06
03
09
0i
1(!
1.
07
05
1i
1-
1"
#198000
0!
0,
0/
#198500
1!
1,
1/
1&!
0F!
00
16
17
#199000
0!
0,
0/
